<?xml version="1.0" encoding="ASCII"?>
<trace:Trace xmlns:xsi="http://www.w3.org/2001/XMLSchema-instance" xmlns:trace="https://team.inria.fr/kairos//trace/1.0.0" name="directDeadlock2015_0622_121842">
  <references xsi:type="trace:ModelElementReference">
    <elementRef href="directDeadlock.extendedCCSL#/"/>
    <elementRef href="directDeadlock.extendedCCSL#//@subBlock.0"/>
    <elementRef href="directDeadlock.extendedCCSL#//@subBlock.0/@elements.0"/>
  </references>
  <references xsi:type="trace:ModelElementReference">
    <elementRef href="directDeadlock.extendedCCSL#/"/>
    <elementRef href="directDeadlock.extendedCCSL#//@subBlock.0"/>
    <elementRef href="directDeadlock.extendedCCSL#//@subBlock.0/@elements.1"/>
  </references>
  <references xsi:type="trace:ModelElementReference">
    <elementRef href="directDeadlock.extendedCCSL#/"/>
    <elementRef href="directDeadlock.extendedCCSL#//@subBlock.0"/>
    <elementRef href="directDeadlock.extendedCCSL#//@subBlock.0/@relations.0"/>
  </references>
  <references xsi:type="trace:ModelElementReference">
    <elementRef href="directDeadlock.extendedCCSL#/"/>
    <elementRef href="directDeadlock.extendedCCSL#//@subBlock.0"/>
    <elementRef href="directDeadlock.extendedCCSL#//@subBlock.0/@relations.1"/>
  </references>
</trace:Trace>
