$date 
Fri Dec 09 14:43:34 CET 2016
$end

$version 
VCD Generation 2.1.0
$end

$comment alias newfile__main__c1 "newfile::main::c1" $end
$comment alias newfile__main__c2 "newfile::main::c2" $end
$comment alias newfile__main__expression_0 "newfile::main::expression_0" $end
$comment alias newfile__main__expression_1 "newfile::main::expression_1" $end
$comment alias newfile__main__expression_3 "newfile::main::expression_3" $end
$comment scale 0.1  $end
$comment relation   "FromMathieu2016_1209_144333.ccslrelationmodel" $end
$comment xmi  newfile__main__c1 "FromMathieu2016_1209_144333.trace#//@references.0" $end
$comment xmi  newfile__main__c2 "FromMathieu2016_1209_144333.trace#//@references.1" $end
$comment xmi  newfile__main__expression_0 "FromMathieu2016_1209_144333.trace#//@references.2" $end
$comment xmi  newfile__main__expression_3 "FromMathieu2016_1209_144333.trace#//@references.3" $end
$comment xmi  newfile__main__expression_1 "FromMathieu2016_1209_144333.trace#//@references.4" $end
$scope module top $end
$var event 1 !1 newfile__main__c1 $end
$var event 1 !2 newfile__main__c2 $end
$var event 1 !3 newfile__main__expression_0 $end
$var event 1 !4 newfile__main__expression_1 $end
$var event 1 !5 newfile__main__expression_3 $end
$upscope $end
$enddefinitions $end

#0
1!1
1!2
#10
1!1
1!2
#20
1!1
#30
1!1
1!3
1!5
1!4
#40
1!1
z!3
z!4
#50
1!1
z!3
z!4
#60
1!1
1!2
z!3
z!4
#70
1!2
z!3
z!4
#80
1!2
z!3
z!4
#90
1!2
z!3
z!4
#100
1!2
z!3
z!4
#110
z!3
z!4
#120
z!3
z!4
#130
z!3
z!4
#140
z!3
z!4
#150
z!3
z!4
#160
z!3
z!4
#170
z!3
z!4
#180
z!3
z!4
#190
z!3
z!4
#200
z!3
z!4
#210
z!3
z!4
#220
z!3
z!4
#230
z!3
z!4
#240
z!3
z!4
#250
z!3
z!4
#260
z!3
z!4
#270
z!3
z!4
#280
z!3
z!4
#290
z!3
z!4
#300
z!3
z!4
#310
z!3
z!4
#320
z!3
z!4
#330
z!3
z!4
#340
z!3
z!4
#350
z!3
z!4
#360
z!3
z!4
#370
z!3
z!4
#380
z!3
z!4
#390
z!3
z!4
#400
z!3
z!4
#410
z!3
z!4
#420
z!3
z!4
#430
z!3
z!4
#440
z!3
z!4
#450
z!3
z!4
#460
z!3
z!4
#470
z!3
z!4
#480
z!3
z!4
#490
z!3
z!4
#500
z!3
z!4
#510
z!3
z!4
#520
z!3
z!4
#530
z!3
z!4
#540
z!3
z!4
#550
z!3
z!4
#560
z!3
z!4
#570
z!3
z!4
#580
z!3
z!4
#590
z!3
z!4
#600
z!3
z!4
#610
z!3
z!4
#620
z!3
z!4
#630
z!3
z!4
#640
z!3
z!4
#650
z!3
z!4
#660
z!3
z!4
#670
z!3
z!4
#680
z!3
z!4
#690
z!3
z!4
#700
z!3
z!4
#710
z!3
z!4
#720
z!3
z!4
#730
z!3
z!4
#740
z!3
z!4
#750
z!3
z!4
#760
z!3
z!4
#770
z!3
z!4
#780
z!3
z!4
#790
z!3
z!4
#800
z!3
z!4
#810
z!3
z!4
#820
z!3
z!4
#830
z!3
z!4
#840
z!3
z!4
#850
z!3
z!4
#860
z!3
z!4
#870
z!3
z!4
#880
z!3
z!4
#890
z!3
z!4
#900
z!3
z!4
#910
z!3
z!4
#920
z!3
z!4
#930
z!3
z!4
#940
z!3
z!4
#950
z!3
z!4
#960
z!3
z!4
#970
z!3
z!4
#980
z!3
z!4
#990
z!3
z!4
#1000
z!1
z!2
z!3
z!4
z!5
