<?xml version="1.0" encoding="ASCII"?>
<trace:Trace xmlns:xsi="http://www.w3.org/2001/XMLSchema-instance" xmlns:trace="https://team.inria.fr/kairos//trace/1.0.0" name="Concat3StartSemantics2016_1209_143449">
  <logicalSteps nextStep="//@logicalSteps.1">
    <eventOccurrences referedElement="//@references.0" eState="noTick" fState="noTick"/>
    <eventOccurrences referedElement="//@references.1" counter="1"/>
    <eventOccurrences referedElement="//@references.2" eState="noTick" fState="noTick"/>
    <eventOccurrences referedElement="//@references.3" eState="noTick" fState="noTick"/>
    <eventOccurrences referedElement="//@references.4" eState="noTick" fState="noTick"/>
    <eventOccurrences referedElement="//@references.5" eState="noTick" fState="noTick"/>
    <eventOccurrences referedElement="//@references.6" eState="noTick" fState="noTick"/>
  </logicalSteps>
  <logicalSteps nextStep="//@logicalSteps.2" previousStep="//@logicalSteps.0" stepNumber="1">
    <eventOccurrences referedElement="//@references.0" counter="1"/>
    <eventOccurrences referedElement="//@references.1" counter="2"/>
    <eventOccurrences referedElement="//@references.2" counter="1"/>
    <eventOccurrences referedElement="//@references.3" counter="1"/>
    <eventOccurrences referedElement="//@references.4" eState="noTick" fState="noTick"/>
    <eventOccurrences referedElement="//@references.5" counter="1"/>
    <eventOccurrences referedElement="//@references.6" isClockDead="true" counter="1"/>
  </logicalSteps>
  <logicalSteps nextStep="//@logicalSteps.3" previousStep="//@logicalSteps.1" stepNumber="2">
    <eventOccurrences referedElement="//@references.0" counter="1" eState="noTick" fState="noTick"/>
    <eventOccurrences referedElement="//@references.1" counter="3"/>
    <eventOccurrences referedElement="//@references.2" counter="2"/>
    <eventOccurrences referedElement="//@references.3" counter="1" eState="noTick" fState="noTick"/>
    <eventOccurrences referedElement="//@references.4" eState="noTick" fState="noTick"/>
    <eventOccurrences referedElement="//@references.5" counter="1" eState="noTick" fState="noTick"/>
    <eventOccurrences referedElement="//@references.6" isClockDead="true" counter="1" eState="noTick" fState="noTick"/>
  </logicalSteps>
  <logicalSteps nextStep="//@logicalSteps.4" previousStep="//@logicalSteps.2" stepNumber="3">
    <eventOccurrences referedElement="//@references.0" counter="1" eState="noTick" fState="noTick"/>
    <eventOccurrences referedElement="//@references.1" counter="4"/>
    <eventOccurrences referedElement="//@references.2" counter="2" eState="noTick" fState="noTick"/>
    <eventOccurrences referedElement="//@references.3" counter="1" eState="noTick" fState="noTick"/>
    <eventOccurrences referedElement="//@references.4" eState="noTick" fState="noTick"/>
    <eventOccurrences referedElement="//@references.5" counter="1" eState="noTick" fState="noTick"/>
    <eventOccurrences referedElement="//@references.6" isClockDead="true" counter="1" eState="noTick" fState="noTick"/>
  </logicalSteps>
  <logicalSteps nextStep="//@logicalSteps.5" previousStep="//@logicalSteps.3" stepNumber="4">
    <eventOccurrences referedElement="//@references.0" counter="2"/>
    <eventOccurrences referedElement="//@references.1" counter="5"/>
    <eventOccurrences referedElement="//@references.2" counter="2" eState="noTick" fState="noTick"/>
    <eventOccurrences referedElement="//@references.3" counter="2"/>
    <eventOccurrences referedElement="//@references.4" isClockDead="true" counter="1"/>
    <eventOccurrences referedElement="//@references.5" isClockDead="true" counter="2"/>
    <eventOccurrences referedElement="//@references.6" isClockDead="true" counter="1" eState="noTick" fState="noTick"/>
  </logicalSteps>
  <logicalSteps nextStep="//@logicalSteps.6" previousStep="//@logicalSteps.4" stepNumber="5">
    <eventOccurrences referedElement="//@references.0" counter="3"/>
    <eventOccurrences referedElement="//@references.1" counter="6"/>
    <eventOccurrences referedElement="//@references.2" counter="3"/>
    <eventOccurrences referedElement="//@references.3" counter="3"/>
    <eventOccurrences referedElement="//@references.4" isClockDead="true" counter="1" eState="noTick" fState="noTick"/>
    <eventOccurrences referedElement="//@references.5" isClockDead="true" counter="2" eState="noTick" fState="noTick"/>
    <eventOccurrences referedElement="//@references.6" isClockDead="true" counter="1" eState="noTick" fState="noTick"/>
  </logicalSteps>
  <logicalSteps nextStep="//@logicalSteps.7" previousStep="//@logicalSteps.5" stepNumber="6">
    <eventOccurrences referedElement="//@references.0" counter="4"/>
    <eventOccurrences referedElement="//@references.1" counter="6" eState="noTick" fState="noTick"/>
    <eventOccurrences referedElement="//@references.2" counter="4"/>
    <eventOccurrences referedElement="//@references.3" counter="4"/>
    <eventOccurrences referedElement="//@references.4" isClockDead="true" counter="1" eState="noTick" fState="noTick"/>
    <eventOccurrences referedElement="//@references.5" isClockDead="true" counter="2" eState="noTick" fState="noTick"/>
    <eventOccurrences referedElement="//@references.6" isClockDead="true" counter="1" eState="noTick" fState="noTick"/>
  </logicalSteps>
  <logicalSteps nextStep="//@logicalSteps.8" previousStep="//@logicalSteps.6" stepNumber="7">
    <eventOccurrences referedElement="//@references.0" counter="5"/>
    <eventOccurrences referedElement="//@references.1" counter="7"/>
    <eventOccurrences referedElement="//@references.2" counter="5"/>
    <eventOccurrences referedElement="//@references.3" counter="5"/>
    <eventOccurrences referedElement="//@references.4" isClockDead="true" counter="1" eState="noTick" fState="noTick"/>
    <eventOccurrences referedElement="//@references.5" isClockDead="true" counter="2" eState="noTick" fState="noTick"/>
    <eventOccurrences referedElement="//@references.6" isClockDead="true" counter="1" eState="noTick" fState="noTick"/>
  </logicalSteps>
  <logicalSteps nextStep="//@logicalSteps.9" previousStep="//@logicalSteps.7" stepNumber="8">
    <eventOccurrences referedElement="//@references.0" counter="5" eState="noTick" fState="noTick"/>
    <eventOccurrences referedElement="//@references.1" counter="8"/>
    <eventOccurrences referedElement="//@references.2" counter="5" eState="noTick" fState="noTick"/>
    <eventOccurrences referedElement="//@references.3" counter="5" eState="noTick" fState="noTick"/>
    <eventOccurrences referedElement="//@references.4" isClockDead="true" counter="1" eState="noTick" fState="noTick"/>
    <eventOccurrences referedElement="//@references.5" isClockDead="true" counter="2" eState="noTick" fState="noTick"/>
    <eventOccurrences referedElement="//@references.6" isClockDead="true" counter="1" eState="noTick" fState="noTick"/>
  </logicalSteps>
  <logicalSteps nextStep="//@logicalSteps.10" previousStep="//@logicalSteps.8" stepNumber="9">
    <eventOccurrences referedElement="//@references.0" counter="6"/>
    <eventOccurrences referedElement="//@references.1" counter="9"/>
    <eventOccurrences referedElement="//@references.2" counter="6"/>
    <eventOccurrences referedElement="//@references.3" counter="6"/>
    <eventOccurrences referedElement="//@references.4" isClockDead="true" counter="1" eState="noTick" fState="noTick"/>
    <eventOccurrences referedElement="//@references.5" isClockDead="true" counter="2" eState="noTick" fState="noTick"/>
    <eventOccurrences referedElement="//@references.6" isClockDead="true" counter="1" eState="noTick" fState="noTick"/>
  </logicalSteps>
  <logicalSteps nextStep="//@logicalSteps.11" previousStep="//@logicalSteps.9" stepNumber="10">
    <eventOccurrences referedElement="//@references.0" counter="7"/>
    <eventOccurrences referedElement="//@references.1" counter="9" eState="noTick" fState="noTick"/>
    <eventOccurrences referedElement="//@references.2" counter="7"/>
    <eventOccurrences referedElement="//@references.3" counter="7"/>
    <eventOccurrences referedElement="//@references.4" isClockDead="true" counter="1" eState="noTick" fState="noTick"/>
    <eventOccurrences referedElement="//@references.5" isClockDead="true" counter="2" eState="noTick" fState="noTick"/>
    <eventOccurrences referedElement="//@references.6" isClockDead="true" counter="1" eState="noTick" fState="noTick"/>
  </logicalSteps>
  <logicalSteps nextStep="//@logicalSteps.12" previousStep="//@logicalSteps.10" stepNumber="11">
    <eventOccurrences referedElement="//@references.0" counter="8"/>
    <eventOccurrences referedElement="//@references.1" counter="9" eState="noTick" fState="noTick"/>
    <eventOccurrences referedElement="//@references.2" counter="8"/>
    <eventOccurrences referedElement="//@references.3" counter="8"/>
    <eventOccurrences referedElement="//@references.4" isClockDead="true" counter="1" eState="noTick" fState="noTick"/>
    <eventOccurrences referedElement="//@references.5" isClockDead="true" counter="2" eState="noTick" fState="noTick"/>
    <eventOccurrences referedElement="//@references.6" isClockDead="true" counter="1" eState="noTick" fState="noTick"/>
  </logicalSteps>
  <logicalSteps nextStep="//@logicalSteps.13" previousStep="//@logicalSteps.11" stepNumber="12">
    <eventOccurrences referedElement="//@references.0" counter="9"/>
    <eventOccurrences referedElement="//@references.1" counter="10"/>
    <eventOccurrences referedElement="//@references.2" counter="9"/>
    <eventOccurrences referedElement="//@references.3" counter="9"/>
    <eventOccurrences referedElement="//@references.4" isClockDead="true" counter="1" eState="noTick" fState="noTick"/>
    <eventOccurrences referedElement="//@references.5" isClockDead="true" counter="2" eState="noTick" fState="noTick"/>
    <eventOccurrences referedElement="//@references.6" isClockDead="true" counter="1" eState="noTick" fState="noTick"/>
  </logicalSteps>
  <logicalSteps nextStep="//@logicalSteps.14" previousStep="//@logicalSteps.12" stepNumber="13">
    <eventOccurrences referedElement="//@references.0" counter="10"/>
    <eventOccurrences referedElement="//@references.1" counter="10" eState="noTick" fState="noTick"/>
    <eventOccurrences referedElement="//@references.2" counter="10"/>
    <eventOccurrences referedElement="//@references.3" counter="10"/>
    <eventOccurrences referedElement="//@references.4" isClockDead="true" counter="1" eState="noTick" fState="noTick"/>
    <eventOccurrences referedElement="//@references.5" isClockDead="true" counter="2" eState="noTick" fState="noTick"/>
    <eventOccurrences referedElement="//@references.6" isClockDead="true" counter="1" eState="noTick" fState="noTick"/>
  </logicalSteps>
  <logicalSteps nextStep="//@logicalSteps.15" previousStep="//@logicalSteps.13" stepNumber="14">
    <eventOccurrences referedElement="//@references.0" counter="10" eState="noTick" fState="noTick"/>
    <eventOccurrences referedElement="//@references.1" counter="11"/>
    <eventOccurrences referedElement="//@references.2" counter="10" eState="noTick" fState="noTick"/>
    <eventOccurrences referedElement="//@references.3" counter="10" eState="noTick" fState="noTick"/>
    <eventOccurrences referedElement="//@references.4" isClockDead="true" counter="1" eState="noTick" fState="noTick"/>
    <eventOccurrences referedElement="//@references.5" isClockDead="true" counter="2" eState="noTick" fState="noTick"/>
    <eventOccurrences referedElement="//@references.6" isClockDead="true" counter="1" eState="noTick" fState="noTick"/>
  </logicalSteps>
  <logicalSteps nextStep="//@logicalSteps.16" previousStep="//@logicalSteps.14" stepNumber="15">
    <eventOccurrences referedElement="//@references.0" counter="10" eState="noTick" fState="noTick"/>
    <eventOccurrences referedElement="//@references.1" counter="12"/>
    <eventOccurrences referedElement="//@references.2" counter="10" eState="noTick" fState="noTick"/>
    <eventOccurrences referedElement="//@references.3" counter="10" eState="noTick" fState="noTick"/>
    <eventOccurrences referedElement="//@references.4" isClockDead="true" counter="1" eState="noTick" fState="noTick"/>
    <eventOccurrences referedElement="//@references.5" isClockDead="true" counter="2" eState="noTick" fState="noTick"/>
    <eventOccurrences referedElement="//@references.6" isClockDead="true" counter="1" eState="noTick" fState="noTick"/>
  </logicalSteps>
  <logicalSteps nextStep="//@logicalSteps.17" previousStep="//@logicalSteps.15" stepNumber="16">
    <eventOccurrences referedElement="//@references.0" counter="11"/>
    <eventOccurrences referedElement="//@references.1" counter="13"/>
    <eventOccurrences referedElement="//@references.2" counter="11"/>
    <eventOccurrences referedElement="//@references.3" counter="11"/>
    <eventOccurrences referedElement="//@references.4" isClockDead="true" counter="1" eState="noTick" fState="noTick"/>
    <eventOccurrences referedElement="//@references.5" isClockDead="true" counter="2" eState="noTick" fState="noTick"/>
    <eventOccurrences referedElement="//@references.6" isClockDead="true" counter="1" eState="noTick" fState="noTick"/>
  </logicalSteps>
  <logicalSteps nextStep="//@logicalSteps.18" previousStep="//@logicalSteps.16" stepNumber="17">
    <eventOccurrences referedElement="//@references.0" counter="12"/>
    <eventOccurrences referedElement="//@references.1" counter="13" eState="noTick" fState="noTick"/>
    <eventOccurrences referedElement="//@references.2" counter="12"/>
    <eventOccurrences referedElement="//@references.3" counter="12"/>
    <eventOccurrences referedElement="//@references.4" isClockDead="true" counter="1" eState="noTick" fState="noTick"/>
    <eventOccurrences referedElement="//@references.5" isClockDead="true" counter="2" eState="noTick" fState="noTick"/>
    <eventOccurrences referedElement="//@references.6" isClockDead="true" counter="1" eState="noTick" fState="noTick"/>
  </logicalSteps>
  <logicalSteps nextStep="//@logicalSteps.19" previousStep="//@logicalSteps.17" stepNumber="18">
    <eventOccurrences referedElement="//@references.0" counter="13"/>
    <eventOccurrences referedElement="//@references.1" counter="13" eState="noTick" fState="noTick"/>
    <eventOccurrences referedElement="//@references.2" counter="13"/>
    <eventOccurrences referedElement="//@references.3" counter="13"/>
    <eventOccurrences referedElement="//@references.4" isClockDead="true" counter="1" eState="noTick" fState="noTick"/>
    <eventOccurrences referedElement="//@references.5" isClockDead="true" counter="2" eState="noTick" fState="noTick"/>
    <eventOccurrences referedElement="//@references.6" isClockDead="true" counter="1" eState="noTick" fState="noTick"/>
  </logicalSteps>
  <logicalSteps nextStep="//@logicalSteps.20" previousStep="//@logicalSteps.18" stepNumber="19">
    <eventOccurrences referedElement="//@references.0" counter="13" eState="noTick" fState="noTick"/>
    <eventOccurrences referedElement="//@references.1" counter="14"/>
    <eventOccurrences referedElement="//@references.2" counter="13" eState="noTick" fState="noTick"/>
    <eventOccurrences referedElement="//@references.3" counter="13" eState="noTick" fState="noTick"/>
    <eventOccurrences referedElement="//@references.4" isClockDead="true" counter="1" eState="noTick" fState="noTick"/>
    <eventOccurrences referedElement="//@references.5" isClockDead="true" counter="2" eState="noTick" fState="noTick"/>
    <eventOccurrences referedElement="//@references.6" isClockDead="true" counter="1" eState="noTick" fState="noTick"/>
  </logicalSteps>
  <logicalSteps nextStep="//@logicalSteps.21" previousStep="//@logicalSteps.19" stepNumber="20">
    <eventOccurrences referedElement="//@references.0" counter="14"/>
    <eventOccurrences referedElement="//@references.1" counter="15"/>
    <eventOccurrences referedElement="//@references.2" counter="14"/>
    <eventOccurrences referedElement="//@references.3" counter="14"/>
    <eventOccurrences referedElement="//@references.4" isClockDead="true" counter="1" eState="noTick" fState="noTick"/>
    <eventOccurrences referedElement="//@references.5" isClockDead="true" counter="2" eState="noTick" fState="noTick"/>
    <eventOccurrences referedElement="//@references.6" isClockDead="true" counter="1" eState="noTick" fState="noTick"/>
  </logicalSteps>
  <logicalSteps nextStep="//@logicalSteps.22" previousStep="//@logicalSteps.20" stepNumber="21">
    <eventOccurrences referedElement="//@references.0" counter="15"/>
    <eventOccurrences referedElement="//@references.1" counter="16"/>
    <eventOccurrences referedElement="//@references.2" counter="15"/>
    <eventOccurrences referedElement="//@references.3" counter="15"/>
    <eventOccurrences referedElement="//@references.4" isClockDead="true" counter="1" eState="noTick" fState="noTick"/>
    <eventOccurrences referedElement="//@references.5" isClockDead="true" counter="2" eState="noTick" fState="noTick"/>
    <eventOccurrences referedElement="//@references.6" isClockDead="true" counter="1" eState="noTick" fState="noTick"/>
  </logicalSteps>
  <logicalSteps nextStep="//@logicalSteps.23" previousStep="//@logicalSteps.21" stepNumber="22">
    <eventOccurrences referedElement="//@references.0" counter="15" eState="noTick" fState="noTick"/>
    <eventOccurrences referedElement="//@references.1" counter="17"/>
    <eventOccurrences referedElement="//@references.2" counter="15" eState="noTick" fState="noTick"/>
    <eventOccurrences referedElement="//@references.3" counter="15" eState="noTick" fState="noTick"/>
    <eventOccurrences referedElement="//@references.4" isClockDead="true" counter="1" eState="noTick" fState="noTick"/>
    <eventOccurrences referedElement="//@references.5" isClockDead="true" counter="2" eState="noTick" fState="noTick"/>
    <eventOccurrences referedElement="//@references.6" isClockDead="true" counter="1" eState="noTick" fState="noTick"/>
  </logicalSteps>
  <logicalSteps nextStep="//@logicalSteps.24" previousStep="//@logicalSteps.22" stepNumber="23">
    <eventOccurrences referedElement="//@references.0" counter="15" eState="noTick" fState="noTick"/>
    <eventOccurrences referedElement="//@references.1" counter="18"/>
    <eventOccurrences referedElement="//@references.2" counter="15" eState="noTick" fState="noTick"/>
    <eventOccurrences referedElement="//@references.3" counter="15" eState="noTick" fState="noTick"/>
    <eventOccurrences referedElement="//@references.4" isClockDead="true" counter="1" eState="noTick" fState="noTick"/>
    <eventOccurrences referedElement="//@references.5" isClockDead="true" counter="2" eState="noTick" fState="noTick"/>
    <eventOccurrences referedElement="//@references.6" isClockDead="true" counter="1" eState="noTick" fState="noTick"/>
  </logicalSteps>
  <logicalSteps nextStep="//@logicalSteps.25" previousStep="//@logicalSteps.23" stepNumber="24">
    <eventOccurrences referedElement="//@references.0" counter="16"/>
    <eventOccurrences referedElement="//@references.1" counter="18" eState="noTick" fState="noTick"/>
    <eventOccurrences referedElement="//@references.2" counter="16"/>
    <eventOccurrences referedElement="//@references.3" counter="16"/>
    <eventOccurrences referedElement="//@references.4" isClockDead="true" counter="1" eState="noTick" fState="noTick"/>
    <eventOccurrences referedElement="//@references.5" isClockDead="true" counter="2" eState="noTick" fState="noTick"/>
    <eventOccurrences referedElement="//@references.6" isClockDead="true" counter="1" eState="noTick" fState="noTick"/>
  </logicalSteps>
  <logicalSteps nextStep="//@logicalSteps.26" previousStep="//@logicalSteps.24" stepNumber="25">
    <eventOccurrences referedElement="//@references.0" counter="16" eState="noTick" fState="noTick"/>
    <eventOccurrences referedElement="//@references.1" counter="19"/>
    <eventOccurrences referedElement="//@references.2" counter="16" eState="noTick" fState="noTick"/>
    <eventOccurrences referedElement="//@references.3" counter="16" eState="noTick" fState="noTick"/>
    <eventOccurrences referedElement="//@references.4" isClockDead="true" counter="1" eState="noTick" fState="noTick"/>
    <eventOccurrences referedElement="//@references.5" isClockDead="true" counter="2" eState="noTick" fState="noTick"/>
    <eventOccurrences referedElement="//@references.6" isClockDead="true" counter="1" eState="noTick" fState="noTick"/>
  </logicalSteps>
  <logicalSteps nextStep="//@logicalSteps.27" previousStep="//@logicalSteps.25" stepNumber="26">
    <eventOccurrences referedElement="//@references.0" counter="17"/>
    <eventOccurrences referedElement="//@references.1" counter="20"/>
    <eventOccurrences referedElement="//@references.2" counter="17"/>
    <eventOccurrences referedElement="//@references.3" counter="17"/>
    <eventOccurrences referedElement="//@references.4" isClockDead="true" counter="1" eState="noTick" fState="noTick"/>
    <eventOccurrences referedElement="//@references.5" isClockDead="true" counter="2" eState="noTick" fState="noTick"/>
    <eventOccurrences referedElement="//@references.6" isClockDead="true" counter="1" eState="noTick" fState="noTick"/>
  </logicalSteps>
  <logicalSteps nextStep="//@logicalSteps.28" previousStep="//@logicalSteps.26" stepNumber="27">
    <eventOccurrences referedElement="//@references.0" counter="18"/>
    <eventOccurrences referedElement="//@references.1" counter="21"/>
    <eventOccurrences referedElement="//@references.2" counter="18"/>
    <eventOccurrences referedElement="//@references.3" counter="18"/>
    <eventOccurrences referedElement="//@references.4" isClockDead="true" counter="1" eState="noTick" fState="noTick"/>
    <eventOccurrences referedElement="//@references.5" isClockDead="true" counter="2" eState="noTick" fState="noTick"/>
    <eventOccurrences referedElement="//@references.6" isClockDead="true" counter="1" eState="noTick" fState="noTick"/>
  </logicalSteps>
  <logicalSteps nextStep="//@logicalSteps.29" previousStep="//@logicalSteps.27" stepNumber="28">
    <eventOccurrences referedElement="//@references.0" counter="19"/>
    <eventOccurrences referedElement="//@references.1" counter="22"/>
    <eventOccurrences referedElement="//@references.2" counter="19"/>
    <eventOccurrences referedElement="//@references.3" counter="19"/>
    <eventOccurrences referedElement="//@references.4" isClockDead="true" counter="1" eState="noTick" fState="noTick"/>
    <eventOccurrences referedElement="//@references.5" isClockDead="true" counter="2" eState="noTick" fState="noTick"/>
    <eventOccurrences referedElement="//@references.6" isClockDead="true" counter="1" eState="noTick" fState="noTick"/>
  </logicalSteps>
  <logicalSteps nextStep="//@logicalSteps.30" previousStep="//@logicalSteps.28" stepNumber="29">
    <eventOccurrences referedElement="//@references.0" counter="20"/>
    <eventOccurrences referedElement="//@references.1" counter="23"/>
    <eventOccurrences referedElement="//@references.2" counter="20"/>
    <eventOccurrences referedElement="//@references.3" counter="20"/>
    <eventOccurrences referedElement="//@references.4" isClockDead="true" counter="1" eState="noTick" fState="noTick"/>
    <eventOccurrences referedElement="//@references.5" isClockDead="true" counter="2" eState="noTick" fState="noTick"/>
    <eventOccurrences referedElement="//@references.6" isClockDead="true" counter="1" eState="noTick" fState="noTick"/>
  </logicalSteps>
  <logicalSteps nextStep="//@logicalSteps.31" previousStep="//@logicalSteps.29" stepNumber="30">
    <eventOccurrences referedElement="//@references.0" counter="21"/>
    <eventOccurrences referedElement="//@references.1" counter="24"/>
    <eventOccurrences referedElement="//@references.2" counter="21"/>
    <eventOccurrences referedElement="//@references.3" counter="21"/>
    <eventOccurrences referedElement="//@references.4" isClockDead="true" counter="1" eState="noTick" fState="noTick"/>
    <eventOccurrences referedElement="//@references.5" isClockDead="true" counter="2" eState="noTick" fState="noTick"/>
    <eventOccurrences referedElement="//@references.6" isClockDead="true" counter="1" eState="noTick" fState="noTick"/>
  </logicalSteps>
  <logicalSteps nextStep="//@logicalSteps.32" previousStep="//@logicalSteps.30" stepNumber="31">
    <eventOccurrences referedElement="//@references.0" counter="22"/>
    <eventOccurrences referedElement="//@references.1" counter="25"/>
    <eventOccurrences referedElement="//@references.2" counter="22"/>
    <eventOccurrences referedElement="//@references.3" counter="22"/>
    <eventOccurrences referedElement="//@references.4" isClockDead="true" counter="1" eState="noTick" fState="noTick"/>
    <eventOccurrences referedElement="//@references.5" isClockDead="true" counter="2" eState="noTick" fState="noTick"/>
    <eventOccurrences referedElement="//@references.6" isClockDead="true" counter="1" eState="noTick" fState="noTick"/>
  </logicalSteps>
  <logicalSteps nextStep="//@logicalSteps.33" previousStep="//@logicalSteps.31" stepNumber="32">
    <eventOccurrences referedElement="//@references.0" counter="22" eState="noTick" fState="noTick"/>
    <eventOccurrences referedElement="//@references.1" counter="26"/>
    <eventOccurrences referedElement="//@references.2" counter="22" eState="noTick" fState="noTick"/>
    <eventOccurrences referedElement="//@references.3" counter="22" eState="noTick" fState="noTick"/>
    <eventOccurrences referedElement="//@references.4" isClockDead="true" counter="1" eState="noTick" fState="noTick"/>
    <eventOccurrences referedElement="//@references.5" isClockDead="true" counter="2" eState="noTick" fState="noTick"/>
    <eventOccurrences referedElement="//@references.6" isClockDead="true" counter="1" eState="noTick" fState="noTick"/>
  </logicalSteps>
  <logicalSteps nextStep="//@logicalSteps.34" previousStep="//@logicalSteps.32" stepNumber="33">
    <eventOccurrences referedElement="//@references.0" counter="23"/>
    <eventOccurrences referedElement="//@references.1" counter="26" eState="noTick" fState="noTick"/>
    <eventOccurrences referedElement="//@references.2" counter="23"/>
    <eventOccurrences referedElement="//@references.3" counter="23"/>
    <eventOccurrences referedElement="//@references.4" isClockDead="true" counter="1" eState="noTick" fState="noTick"/>
    <eventOccurrences referedElement="//@references.5" isClockDead="true" counter="2" eState="noTick" fState="noTick"/>
    <eventOccurrences referedElement="//@references.6" isClockDead="true" counter="1" eState="noTick" fState="noTick"/>
  </logicalSteps>
  <logicalSteps nextStep="//@logicalSteps.35" previousStep="//@logicalSteps.33" stepNumber="34">
    <eventOccurrences referedElement="//@references.0" counter="24"/>
    <eventOccurrences referedElement="//@references.1" counter="26" eState="noTick" fState="noTick"/>
    <eventOccurrences referedElement="//@references.2" counter="24"/>
    <eventOccurrences referedElement="//@references.3" counter="24"/>
    <eventOccurrences referedElement="//@references.4" isClockDead="true" counter="1" eState="noTick" fState="noTick"/>
    <eventOccurrences referedElement="//@references.5" isClockDead="true" counter="2" eState="noTick" fState="noTick"/>
    <eventOccurrences referedElement="//@references.6" isClockDead="true" counter="1" eState="noTick" fState="noTick"/>
  </logicalSteps>
  <logicalSteps nextStep="//@logicalSteps.36" previousStep="//@logicalSteps.34" stepNumber="35">
    <eventOccurrences referedElement="//@references.0" counter="25"/>
    <eventOccurrences referedElement="//@references.1" counter="26" eState="noTick" fState="noTick"/>
    <eventOccurrences referedElement="//@references.2" counter="25"/>
    <eventOccurrences referedElement="//@references.3" counter="25"/>
    <eventOccurrences referedElement="//@references.4" isClockDead="true" counter="1" eState="noTick" fState="noTick"/>
    <eventOccurrences referedElement="//@references.5" isClockDead="true" counter="2" eState="noTick" fState="noTick"/>
    <eventOccurrences referedElement="//@references.6" isClockDead="true" counter="1" eState="noTick" fState="noTick"/>
  </logicalSteps>
  <logicalSteps nextStep="//@logicalSteps.37" previousStep="//@logicalSteps.35" stepNumber="36">
    <eventOccurrences referedElement="//@references.0" counter="26"/>
    <eventOccurrences referedElement="//@references.1" counter="26" eState="noTick" fState="noTick"/>
    <eventOccurrences referedElement="//@references.2" counter="26"/>
    <eventOccurrences referedElement="//@references.3" counter="26"/>
    <eventOccurrences referedElement="//@references.4" isClockDead="true" counter="1" eState="noTick" fState="noTick"/>
    <eventOccurrences referedElement="//@references.5" isClockDead="true" counter="2" eState="noTick" fState="noTick"/>
    <eventOccurrences referedElement="//@references.6" isClockDead="true" counter="1" eState="noTick" fState="noTick"/>
  </logicalSteps>
  <logicalSteps nextStep="//@logicalSteps.38" previousStep="//@logicalSteps.36" stepNumber="37">
    <eventOccurrences referedElement="//@references.0" counter="27"/>
    <eventOccurrences referedElement="//@references.1" counter="27"/>
    <eventOccurrences referedElement="//@references.2" counter="27"/>
    <eventOccurrences referedElement="//@references.3" counter="27"/>
    <eventOccurrences referedElement="//@references.4" isClockDead="true" counter="1" eState="noTick" fState="noTick"/>
    <eventOccurrences referedElement="//@references.5" isClockDead="true" counter="2" eState="noTick" fState="noTick"/>
    <eventOccurrences referedElement="//@references.6" isClockDead="true" counter="1" eState="noTick" fState="noTick"/>
  </logicalSteps>
  <logicalSteps nextStep="//@logicalSteps.39" previousStep="//@logicalSteps.37" stepNumber="38">
    <eventOccurrences referedElement="//@references.0" counter="27" eState="noTick" fState="noTick"/>
    <eventOccurrences referedElement="//@references.1" counter="28"/>
    <eventOccurrences referedElement="//@references.2" counter="27" eState="noTick" fState="noTick"/>
    <eventOccurrences referedElement="//@references.3" counter="27" eState="noTick" fState="noTick"/>
    <eventOccurrences referedElement="//@references.4" isClockDead="true" counter="1" eState="noTick" fState="noTick"/>
    <eventOccurrences referedElement="//@references.5" isClockDead="true" counter="2" eState="noTick" fState="noTick"/>
    <eventOccurrences referedElement="//@references.6" isClockDead="true" counter="1" eState="noTick" fState="noTick"/>
  </logicalSteps>
  <logicalSteps nextStep="//@logicalSteps.40" previousStep="//@logicalSteps.38" stepNumber="39">
    <eventOccurrences referedElement="//@references.0" counter="28"/>
    <eventOccurrences referedElement="//@references.1" counter="29"/>
    <eventOccurrences referedElement="//@references.2" counter="28"/>
    <eventOccurrences referedElement="//@references.3" counter="28"/>
    <eventOccurrences referedElement="//@references.4" isClockDead="true" counter="1" eState="noTick" fState="noTick"/>
    <eventOccurrences referedElement="//@references.5" isClockDead="true" counter="2" eState="noTick" fState="noTick"/>
    <eventOccurrences referedElement="//@references.6" isClockDead="true" counter="1" eState="noTick" fState="noTick"/>
  </logicalSteps>
  <logicalSteps nextStep="//@logicalSteps.41" previousStep="//@logicalSteps.39" stepNumber="40">
    <eventOccurrences referedElement="//@references.0" counter="29"/>
    <eventOccurrences referedElement="//@references.1" counter="29" eState="noTick" fState="noTick"/>
    <eventOccurrences referedElement="//@references.2" counter="29"/>
    <eventOccurrences referedElement="//@references.3" counter="29"/>
    <eventOccurrences referedElement="//@references.4" isClockDead="true" counter="1" eState="noTick" fState="noTick"/>
    <eventOccurrences referedElement="//@references.5" isClockDead="true" counter="2" eState="noTick" fState="noTick"/>
    <eventOccurrences referedElement="//@references.6" isClockDead="true" counter="1" eState="noTick" fState="noTick"/>
  </logicalSteps>
  <logicalSteps nextStep="//@logicalSteps.42" previousStep="//@logicalSteps.40" stepNumber="41">
    <eventOccurrences referedElement="//@references.0" counter="30"/>
    <eventOccurrences referedElement="//@references.1" counter="29" eState="noTick" fState="noTick"/>
    <eventOccurrences referedElement="//@references.2" counter="30"/>
    <eventOccurrences referedElement="//@references.3" counter="30"/>
    <eventOccurrences referedElement="//@references.4" isClockDead="true" counter="1" eState="noTick" fState="noTick"/>
    <eventOccurrences referedElement="//@references.5" isClockDead="true" counter="2" eState="noTick" fState="noTick"/>
    <eventOccurrences referedElement="//@references.6" isClockDead="true" counter="1" eState="noTick" fState="noTick"/>
  </logicalSteps>
  <logicalSteps nextStep="//@logicalSteps.43" previousStep="//@logicalSteps.41" stepNumber="42">
    <eventOccurrences referedElement="//@references.0" counter="31"/>
    <eventOccurrences referedElement="//@references.1" counter="29" eState="noTick" fState="noTick"/>
    <eventOccurrences referedElement="//@references.2" counter="31"/>
    <eventOccurrences referedElement="//@references.3" counter="31"/>
    <eventOccurrences referedElement="//@references.4" isClockDead="true" counter="1" eState="noTick" fState="noTick"/>
    <eventOccurrences referedElement="//@references.5" isClockDead="true" counter="2" eState="noTick" fState="noTick"/>
    <eventOccurrences referedElement="//@references.6" isClockDead="true" counter="1" eState="noTick" fState="noTick"/>
  </logicalSteps>
  <logicalSteps nextStep="//@logicalSteps.44" previousStep="//@logicalSteps.42" stepNumber="43">
    <eventOccurrences referedElement="//@references.0" counter="32"/>
    <eventOccurrences referedElement="//@references.1" counter="29" eState="noTick" fState="noTick"/>
    <eventOccurrences referedElement="//@references.2" counter="32"/>
    <eventOccurrences referedElement="//@references.3" counter="32"/>
    <eventOccurrences referedElement="//@references.4" isClockDead="true" counter="1" eState="noTick" fState="noTick"/>
    <eventOccurrences referedElement="//@references.5" isClockDead="true" counter="2" eState="noTick" fState="noTick"/>
    <eventOccurrences referedElement="//@references.6" isClockDead="true" counter="1" eState="noTick" fState="noTick"/>
  </logicalSteps>
  <logicalSteps nextStep="//@logicalSteps.45" previousStep="//@logicalSteps.43" stepNumber="44">
    <eventOccurrences referedElement="//@references.0" counter="33"/>
    <eventOccurrences referedElement="//@references.1" counter="30"/>
    <eventOccurrences referedElement="//@references.2" counter="33"/>
    <eventOccurrences referedElement="//@references.3" counter="33"/>
    <eventOccurrences referedElement="//@references.4" isClockDead="true" counter="1" eState="noTick" fState="noTick"/>
    <eventOccurrences referedElement="//@references.5" isClockDead="true" counter="2" eState="noTick" fState="noTick"/>
    <eventOccurrences referedElement="//@references.6" isClockDead="true" counter="1" eState="noTick" fState="noTick"/>
  </logicalSteps>
  <logicalSteps nextStep="//@logicalSteps.46" previousStep="//@logicalSteps.44" stepNumber="45">
    <eventOccurrences referedElement="//@references.0" counter="34"/>
    <eventOccurrences referedElement="//@references.1" counter="31"/>
    <eventOccurrences referedElement="//@references.2" counter="34"/>
    <eventOccurrences referedElement="//@references.3" counter="34"/>
    <eventOccurrences referedElement="//@references.4" isClockDead="true" counter="1" eState="noTick" fState="noTick"/>
    <eventOccurrences referedElement="//@references.5" isClockDead="true" counter="2" eState="noTick" fState="noTick"/>
    <eventOccurrences referedElement="//@references.6" isClockDead="true" counter="1" eState="noTick" fState="noTick"/>
  </logicalSteps>
  <logicalSteps nextStep="//@logicalSteps.47" previousStep="//@logicalSteps.45" stepNumber="46">
    <eventOccurrences referedElement="//@references.0" counter="34" eState="noTick" fState="noTick"/>
    <eventOccurrences referedElement="//@references.1" counter="32"/>
    <eventOccurrences referedElement="//@references.2" counter="34" eState="noTick" fState="noTick"/>
    <eventOccurrences referedElement="//@references.3" counter="34" eState="noTick" fState="noTick"/>
    <eventOccurrences referedElement="//@references.4" isClockDead="true" counter="1" eState="noTick" fState="noTick"/>
    <eventOccurrences referedElement="//@references.5" isClockDead="true" counter="2" eState="noTick" fState="noTick"/>
    <eventOccurrences referedElement="//@references.6" isClockDead="true" counter="1" eState="noTick" fState="noTick"/>
  </logicalSteps>
  <logicalSteps nextStep="//@logicalSteps.48" previousStep="//@logicalSteps.46" stepNumber="47">
    <eventOccurrences referedElement="//@references.0" counter="34" eState="noTick" fState="noTick"/>
    <eventOccurrences referedElement="//@references.1" counter="33"/>
    <eventOccurrences referedElement="//@references.2" counter="34" eState="noTick" fState="noTick"/>
    <eventOccurrences referedElement="//@references.3" counter="34" eState="noTick" fState="noTick"/>
    <eventOccurrences referedElement="//@references.4" isClockDead="true" counter="1" eState="noTick" fState="noTick"/>
    <eventOccurrences referedElement="//@references.5" isClockDead="true" counter="2" eState="noTick" fState="noTick"/>
    <eventOccurrences referedElement="//@references.6" isClockDead="true" counter="1" eState="noTick" fState="noTick"/>
  </logicalSteps>
  <logicalSteps nextStep="//@logicalSteps.49" previousStep="//@logicalSteps.47" stepNumber="48">
    <eventOccurrences referedElement="//@references.0" counter="35"/>
    <eventOccurrences referedElement="//@references.1" counter="34"/>
    <eventOccurrences referedElement="//@references.2" counter="35"/>
    <eventOccurrences referedElement="//@references.3" counter="35"/>
    <eventOccurrences referedElement="//@references.4" isClockDead="true" counter="1" eState="noTick" fState="noTick"/>
    <eventOccurrences referedElement="//@references.5" isClockDead="true" counter="2" eState="noTick" fState="noTick"/>
    <eventOccurrences referedElement="//@references.6" isClockDead="true" counter="1" eState="noTick" fState="noTick"/>
  </logicalSteps>
  <logicalSteps nextStep="//@logicalSteps.50" previousStep="//@logicalSteps.48" stepNumber="49">
    <eventOccurrences referedElement="//@references.0" counter="36"/>
    <eventOccurrences referedElement="//@references.1" counter="34" eState="noTick" fState="noTick"/>
    <eventOccurrences referedElement="//@references.2" counter="36"/>
    <eventOccurrences referedElement="//@references.3" counter="36"/>
    <eventOccurrences referedElement="//@references.4" isClockDead="true" counter="1" eState="noTick" fState="noTick"/>
    <eventOccurrences referedElement="//@references.5" isClockDead="true" counter="2" eState="noTick" fState="noTick"/>
    <eventOccurrences referedElement="//@references.6" isClockDead="true" counter="1" eState="noTick" fState="noTick"/>
  </logicalSteps>
  <logicalSteps nextStep="//@logicalSteps.51" previousStep="//@logicalSteps.49" stepNumber="50">
    <eventOccurrences referedElement="//@references.0" counter="37"/>
    <eventOccurrences referedElement="//@references.1" counter="34" eState="noTick" fState="noTick"/>
    <eventOccurrences referedElement="//@references.2" counter="37"/>
    <eventOccurrences referedElement="//@references.3" counter="37"/>
    <eventOccurrences referedElement="//@references.4" isClockDead="true" counter="1" eState="noTick" fState="noTick"/>
    <eventOccurrences referedElement="//@references.5" isClockDead="true" counter="2" eState="noTick" fState="noTick"/>
    <eventOccurrences referedElement="//@references.6" isClockDead="true" counter="1" eState="noTick" fState="noTick"/>
  </logicalSteps>
  <logicalSteps nextStep="//@logicalSteps.52" previousStep="//@logicalSteps.50" stepNumber="51">
    <eventOccurrences referedElement="//@references.0" counter="37" eState="noTick" fState="noTick"/>
    <eventOccurrences referedElement="//@references.1" counter="35"/>
    <eventOccurrences referedElement="//@references.2" counter="37" eState="noTick" fState="noTick"/>
    <eventOccurrences referedElement="//@references.3" counter="37" eState="noTick" fState="noTick"/>
    <eventOccurrences referedElement="//@references.4" isClockDead="true" counter="1" eState="noTick" fState="noTick"/>
    <eventOccurrences referedElement="//@references.5" isClockDead="true" counter="2" eState="noTick" fState="noTick"/>
    <eventOccurrences referedElement="//@references.6" isClockDead="true" counter="1" eState="noTick" fState="noTick"/>
  </logicalSteps>
  <logicalSteps nextStep="//@logicalSteps.53" previousStep="//@logicalSteps.51" stepNumber="52">
    <eventOccurrences referedElement="//@references.0" counter="38"/>
    <eventOccurrences referedElement="//@references.1" counter="36"/>
    <eventOccurrences referedElement="//@references.2" counter="38"/>
    <eventOccurrences referedElement="//@references.3" counter="38"/>
    <eventOccurrences referedElement="//@references.4" isClockDead="true" counter="1" eState="noTick" fState="noTick"/>
    <eventOccurrences referedElement="//@references.5" isClockDead="true" counter="2" eState="noTick" fState="noTick"/>
    <eventOccurrences referedElement="//@references.6" isClockDead="true" counter="1" eState="noTick" fState="noTick"/>
  </logicalSteps>
  <logicalSteps nextStep="//@logicalSteps.54" previousStep="//@logicalSteps.52" stepNumber="53">
    <eventOccurrences referedElement="//@references.0" counter="39"/>
    <eventOccurrences referedElement="//@references.1" counter="36" eState="noTick" fState="noTick"/>
    <eventOccurrences referedElement="//@references.2" counter="39"/>
    <eventOccurrences referedElement="//@references.3" counter="39"/>
    <eventOccurrences referedElement="//@references.4" isClockDead="true" counter="1" eState="noTick" fState="noTick"/>
    <eventOccurrences referedElement="//@references.5" isClockDead="true" counter="2" eState="noTick" fState="noTick"/>
    <eventOccurrences referedElement="//@references.6" isClockDead="true" counter="1" eState="noTick" fState="noTick"/>
  </logicalSteps>
  <logicalSteps nextStep="//@logicalSteps.55" previousStep="//@logicalSteps.53" stepNumber="54">
    <eventOccurrences referedElement="//@references.0" counter="39" eState="noTick" fState="noTick"/>
    <eventOccurrences referedElement="//@references.1" counter="37"/>
    <eventOccurrences referedElement="//@references.2" counter="39" eState="noTick" fState="noTick"/>
    <eventOccurrences referedElement="//@references.3" counter="39" eState="noTick" fState="noTick"/>
    <eventOccurrences referedElement="//@references.4" isClockDead="true" counter="1" eState="noTick" fState="noTick"/>
    <eventOccurrences referedElement="//@references.5" isClockDead="true" counter="2" eState="noTick" fState="noTick"/>
    <eventOccurrences referedElement="//@references.6" isClockDead="true" counter="1" eState="noTick" fState="noTick"/>
  </logicalSteps>
  <logicalSteps nextStep="//@logicalSteps.56" previousStep="//@logicalSteps.54" stepNumber="55">
    <eventOccurrences referedElement="//@references.0" counter="39" eState="noTick" fState="noTick"/>
    <eventOccurrences referedElement="//@references.1" counter="38"/>
    <eventOccurrences referedElement="//@references.2" counter="39" eState="noTick" fState="noTick"/>
    <eventOccurrences referedElement="//@references.3" counter="39" eState="noTick" fState="noTick"/>
    <eventOccurrences referedElement="//@references.4" isClockDead="true" counter="1" eState="noTick" fState="noTick"/>
    <eventOccurrences referedElement="//@references.5" isClockDead="true" counter="2" eState="noTick" fState="noTick"/>
    <eventOccurrences referedElement="//@references.6" isClockDead="true" counter="1" eState="noTick" fState="noTick"/>
  </logicalSteps>
  <logicalSteps nextStep="//@logicalSteps.57" previousStep="//@logicalSteps.55" stepNumber="56">
    <eventOccurrences referedElement="//@references.0" counter="40"/>
    <eventOccurrences referedElement="//@references.1" counter="38" eState="noTick" fState="noTick"/>
    <eventOccurrences referedElement="//@references.2" counter="40"/>
    <eventOccurrences referedElement="//@references.3" counter="40"/>
    <eventOccurrences referedElement="//@references.4" isClockDead="true" counter="1" eState="noTick" fState="noTick"/>
    <eventOccurrences referedElement="//@references.5" isClockDead="true" counter="2" eState="noTick" fState="noTick"/>
    <eventOccurrences referedElement="//@references.6" isClockDead="true" counter="1" eState="noTick" fState="noTick"/>
  </logicalSteps>
  <logicalSteps nextStep="//@logicalSteps.58" previousStep="//@logicalSteps.56" stepNumber="57">
    <eventOccurrences referedElement="//@references.0" counter="41"/>
    <eventOccurrences referedElement="//@references.1" counter="38" eState="noTick" fState="noTick"/>
    <eventOccurrences referedElement="//@references.2" counter="41"/>
    <eventOccurrences referedElement="//@references.3" counter="41"/>
    <eventOccurrences referedElement="//@references.4" isClockDead="true" counter="1" eState="noTick" fState="noTick"/>
    <eventOccurrences referedElement="//@references.5" isClockDead="true" counter="2" eState="noTick" fState="noTick"/>
    <eventOccurrences referedElement="//@references.6" isClockDead="true" counter="1" eState="noTick" fState="noTick"/>
  </logicalSteps>
  <logicalSteps nextStep="//@logicalSteps.59" previousStep="//@logicalSteps.57" stepNumber="58">
    <eventOccurrences referedElement="//@references.0" counter="42"/>
    <eventOccurrences referedElement="//@references.1" counter="38" eState="noTick" fState="noTick"/>
    <eventOccurrences referedElement="//@references.2" counter="42"/>
    <eventOccurrences referedElement="//@references.3" counter="42"/>
    <eventOccurrences referedElement="//@references.4" isClockDead="true" counter="1" eState="noTick" fState="noTick"/>
    <eventOccurrences referedElement="//@references.5" isClockDead="true" counter="2" eState="noTick" fState="noTick"/>
    <eventOccurrences referedElement="//@references.6" isClockDead="true" counter="1" eState="noTick" fState="noTick"/>
  </logicalSteps>
  <logicalSteps nextStep="//@logicalSteps.60" previousStep="//@logicalSteps.58" stepNumber="59">
    <eventOccurrences referedElement="//@references.0" counter="43"/>
    <eventOccurrences referedElement="//@references.1" counter="38" eState="noTick" fState="noTick"/>
    <eventOccurrences referedElement="//@references.2" counter="43"/>
    <eventOccurrences referedElement="//@references.3" counter="43"/>
    <eventOccurrences referedElement="//@references.4" isClockDead="true" counter="1" eState="noTick" fState="noTick"/>
    <eventOccurrences referedElement="//@references.5" isClockDead="true" counter="2" eState="noTick" fState="noTick"/>
    <eventOccurrences referedElement="//@references.6" isClockDead="true" counter="1" eState="noTick" fState="noTick"/>
  </logicalSteps>
  <logicalSteps nextStep="//@logicalSteps.61" previousStep="//@logicalSteps.59" stepNumber="60">
    <eventOccurrences referedElement="//@references.0" counter="43" eState="noTick" fState="noTick"/>
    <eventOccurrences referedElement="//@references.1" counter="39"/>
    <eventOccurrences referedElement="//@references.2" counter="43" eState="noTick" fState="noTick"/>
    <eventOccurrences referedElement="//@references.3" counter="43" eState="noTick" fState="noTick"/>
    <eventOccurrences referedElement="//@references.4" isClockDead="true" counter="1" eState="noTick" fState="noTick"/>
    <eventOccurrences referedElement="//@references.5" isClockDead="true" counter="2" eState="noTick" fState="noTick"/>
    <eventOccurrences referedElement="//@references.6" isClockDead="true" counter="1" eState="noTick" fState="noTick"/>
  </logicalSteps>
  <logicalSteps nextStep="//@logicalSteps.62" previousStep="//@logicalSteps.60" stepNumber="61">
    <eventOccurrences referedElement="//@references.0" counter="44"/>
    <eventOccurrences referedElement="//@references.1" counter="39" eState="noTick" fState="noTick"/>
    <eventOccurrences referedElement="//@references.2" counter="44"/>
    <eventOccurrences referedElement="//@references.3" counter="44"/>
    <eventOccurrences referedElement="//@references.4" isClockDead="true" counter="1" eState="noTick" fState="noTick"/>
    <eventOccurrences referedElement="//@references.5" isClockDead="true" counter="2" eState="noTick" fState="noTick"/>
    <eventOccurrences referedElement="//@references.6" isClockDead="true" counter="1" eState="noTick" fState="noTick"/>
  </logicalSteps>
  <logicalSteps nextStep="//@logicalSteps.63" previousStep="//@logicalSteps.61" stepNumber="62">
    <eventOccurrences referedElement="//@references.0" counter="45"/>
    <eventOccurrences referedElement="//@references.1" counter="40"/>
    <eventOccurrences referedElement="//@references.2" counter="45"/>
    <eventOccurrences referedElement="//@references.3" counter="45"/>
    <eventOccurrences referedElement="//@references.4" isClockDead="true" counter="1" eState="noTick" fState="noTick"/>
    <eventOccurrences referedElement="//@references.5" isClockDead="true" counter="2" eState="noTick" fState="noTick"/>
    <eventOccurrences referedElement="//@references.6" isClockDead="true" counter="1" eState="noTick" fState="noTick"/>
  </logicalSteps>
  <logicalSteps nextStep="//@logicalSteps.64" previousStep="//@logicalSteps.62" stepNumber="63">
    <eventOccurrences referedElement="//@references.0" counter="46"/>
    <eventOccurrences referedElement="//@references.1" counter="40" eState="noTick" fState="noTick"/>
    <eventOccurrences referedElement="//@references.2" counter="46"/>
    <eventOccurrences referedElement="//@references.3" counter="46"/>
    <eventOccurrences referedElement="//@references.4" isClockDead="true" counter="1" eState="noTick" fState="noTick"/>
    <eventOccurrences referedElement="//@references.5" isClockDead="true" counter="2" eState="noTick" fState="noTick"/>
    <eventOccurrences referedElement="//@references.6" isClockDead="true" counter="1" eState="noTick" fState="noTick"/>
  </logicalSteps>
  <logicalSteps nextStep="//@logicalSteps.65" previousStep="//@logicalSteps.63" stepNumber="64">
    <eventOccurrences referedElement="//@references.0" counter="47"/>
    <eventOccurrences referedElement="//@references.1" counter="41"/>
    <eventOccurrences referedElement="//@references.2" counter="47"/>
    <eventOccurrences referedElement="//@references.3" counter="47"/>
    <eventOccurrences referedElement="//@references.4" isClockDead="true" counter="1" eState="noTick" fState="noTick"/>
    <eventOccurrences referedElement="//@references.5" isClockDead="true" counter="2" eState="noTick" fState="noTick"/>
    <eventOccurrences referedElement="//@references.6" isClockDead="true" counter="1" eState="noTick" fState="noTick"/>
  </logicalSteps>
  <logicalSteps nextStep="//@logicalSteps.66" previousStep="//@logicalSteps.64" stepNumber="65">
    <eventOccurrences referedElement="//@references.0" counter="47" eState="noTick" fState="noTick"/>
    <eventOccurrences referedElement="//@references.1" counter="42"/>
    <eventOccurrences referedElement="//@references.2" counter="47" eState="noTick" fState="noTick"/>
    <eventOccurrences referedElement="//@references.3" counter="47" eState="noTick" fState="noTick"/>
    <eventOccurrences referedElement="//@references.4" isClockDead="true" counter="1" eState="noTick" fState="noTick"/>
    <eventOccurrences referedElement="//@references.5" isClockDead="true" counter="2" eState="noTick" fState="noTick"/>
    <eventOccurrences referedElement="//@references.6" isClockDead="true" counter="1" eState="noTick" fState="noTick"/>
  </logicalSteps>
  <logicalSteps nextStep="//@logicalSteps.67" previousStep="//@logicalSteps.65" stepNumber="66">
    <eventOccurrences referedElement="//@references.0" counter="47" eState="noTick" fState="noTick"/>
    <eventOccurrences referedElement="//@references.1" counter="43"/>
    <eventOccurrences referedElement="//@references.2" counter="47" eState="noTick" fState="noTick"/>
    <eventOccurrences referedElement="//@references.3" counter="47" eState="noTick" fState="noTick"/>
    <eventOccurrences referedElement="//@references.4" isClockDead="true" counter="1" eState="noTick" fState="noTick"/>
    <eventOccurrences referedElement="//@references.5" isClockDead="true" counter="2" eState="noTick" fState="noTick"/>
    <eventOccurrences referedElement="//@references.6" isClockDead="true" counter="1" eState="noTick" fState="noTick"/>
  </logicalSteps>
  <logicalSteps nextStep="//@logicalSteps.68" previousStep="//@logicalSteps.66" stepNumber="67">
    <eventOccurrences referedElement="//@references.0" counter="48"/>
    <eventOccurrences referedElement="//@references.1" counter="43" eState="noTick" fState="noTick"/>
    <eventOccurrences referedElement="//@references.2" counter="48"/>
    <eventOccurrences referedElement="//@references.3" counter="48"/>
    <eventOccurrences referedElement="//@references.4" isClockDead="true" counter="1" eState="noTick" fState="noTick"/>
    <eventOccurrences referedElement="//@references.5" isClockDead="true" counter="2" eState="noTick" fState="noTick"/>
    <eventOccurrences referedElement="//@references.6" isClockDead="true" counter="1" eState="noTick" fState="noTick"/>
  </logicalSteps>
  <logicalSteps nextStep="//@logicalSteps.69" previousStep="//@logicalSteps.67" stepNumber="68">
    <eventOccurrences referedElement="//@references.0" counter="48" eState="noTick" fState="noTick"/>
    <eventOccurrences referedElement="//@references.1" counter="44"/>
    <eventOccurrences referedElement="//@references.2" counter="48" eState="noTick" fState="noTick"/>
    <eventOccurrences referedElement="//@references.3" counter="48" eState="noTick" fState="noTick"/>
    <eventOccurrences referedElement="//@references.4" isClockDead="true" counter="1" eState="noTick" fState="noTick"/>
    <eventOccurrences referedElement="//@references.5" isClockDead="true" counter="2" eState="noTick" fState="noTick"/>
    <eventOccurrences referedElement="//@references.6" isClockDead="true" counter="1" eState="noTick" fState="noTick"/>
  </logicalSteps>
  <logicalSteps nextStep="//@logicalSteps.70" previousStep="//@logicalSteps.68" stepNumber="69">
    <eventOccurrences referedElement="//@references.0" counter="48" eState="noTick" fState="noTick"/>
    <eventOccurrences referedElement="//@references.1" counter="45"/>
    <eventOccurrences referedElement="//@references.2" counter="48" eState="noTick" fState="noTick"/>
    <eventOccurrences referedElement="//@references.3" counter="48" eState="noTick" fState="noTick"/>
    <eventOccurrences referedElement="//@references.4" isClockDead="true" counter="1" eState="noTick" fState="noTick"/>
    <eventOccurrences referedElement="//@references.5" isClockDead="true" counter="2" eState="noTick" fState="noTick"/>
    <eventOccurrences referedElement="//@references.6" isClockDead="true" counter="1" eState="noTick" fState="noTick"/>
  </logicalSteps>
  <logicalSteps nextStep="//@logicalSteps.71" previousStep="//@logicalSteps.69" stepNumber="70">
    <eventOccurrences referedElement="//@references.0" counter="48" eState="noTick" fState="noTick"/>
    <eventOccurrences referedElement="//@references.1" counter="46"/>
    <eventOccurrences referedElement="//@references.2" counter="48" eState="noTick" fState="noTick"/>
    <eventOccurrences referedElement="//@references.3" counter="48" eState="noTick" fState="noTick"/>
    <eventOccurrences referedElement="//@references.4" isClockDead="true" counter="1" eState="noTick" fState="noTick"/>
    <eventOccurrences referedElement="//@references.5" isClockDead="true" counter="2" eState="noTick" fState="noTick"/>
    <eventOccurrences referedElement="//@references.6" isClockDead="true" counter="1" eState="noTick" fState="noTick"/>
  </logicalSteps>
  <logicalSteps nextStep="//@logicalSteps.72" previousStep="//@logicalSteps.70" stepNumber="71">
    <eventOccurrences referedElement="//@references.0" counter="48" eState="noTick" fState="noTick"/>
    <eventOccurrences referedElement="//@references.1" counter="47"/>
    <eventOccurrences referedElement="//@references.2" counter="48" eState="noTick" fState="noTick"/>
    <eventOccurrences referedElement="//@references.3" counter="48" eState="noTick" fState="noTick"/>
    <eventOccurrences referedElement="//@references.4" isClockDead="true" counter="1" eState="noTick" fState="noTick"/>
    <eventOccurrences referedElement="//@references.5" isClockDead="true" counter="2" eState="noTick" fState="noTick"/>
    <eventOccurrences referedElement="//@references.6" isClockDead="true" counter="1" eState="noTick" fState="noTick"/>
  </logicalSteps>
  <logicalSteps nextStep="//@logicalSteps.73" previousStep="//@logicalSteps.71" stepNumber="72">
    <eventOccurrences referedElement="//@references.0" counter="48" eState="noTick" fState="noTick"/>
    <eventOccurrences referedElement="//@references.1" counter="48"/>
    <eventOccurrences referedElement="//@references.2" counter="48" eState="noTick" fState="noTick"/>
    <eventOccurrences referedElement="//@references.3" counter="48" eState="noTick" fState="noTick"/>
    <eventOccurrences referedElement="//@references.4" isClockDead="true" counter="1" eState="noTick" fState="noTick"/>
    <eventOccurrences referedElement="//@references.5" isClockDead="true" counter="2" eState="noTick" fState="noTick"/>
    <eventOccurrences referedElement="//@references.6" isClockDead="true" counter="1" eState="noTick" fState="noTick"/>
  </logicalSteps>
  <logicalSteps nextStep="//@logicalSteps.74" previousStep="//@logicalSteps.72" stepNumber="73">
    <eventOccurrences referedElement="//@references.0" counter="48" eState="noTick" fState="noTick"/>
    <eventOccurrences referedElement="//@references.1" counter="49"/>
    <eventOccurrences referedElement="//@references.2" counter="48" eState="noTick" fState="noTick"/>
    <eventOccurrences referedElement="//@references.3" counter="48" eState="noTick" fState="noTick"/>
    <eventOccurrences referedElement="//@references.4" isClockDead="true" counter="1" eState="noTick" fState="noTick"/>
    <eventOccurrences referedElement="//@references.5" isClockDead="true" counter="2" eState="noTick" fState="noTick"/>
    <eventOccurrences referedElement="//@references.6" isClockDead="true" counter="1" eState="noTick" fState="noTick"/>
  </logicalSteps>
  <logicalSteps nextStep="//@logicalSteps.75" previousStep="//@logicalSteps.73" stepNumber="74">
    <eventOccurrences referedElement="//@references.0" counter="49"/>
    <eventOccurrences referedElement="//@references.1" counter="49" eState="noTick" fState="noTick"/>
    <eventOccurrences referedElement="//@references.2" counter="49"/>
    <eventOccurrences referedElement="//@references.3" counter="49"/>
    <eventOccurrences referedElement="//@references.4" isClockDead="true" counter="1" eState="noTick" fState="noTick"/>
    <eventOccurrences referedElement="//@references.5" isClockDead="true" counter="2" eState="noTick" fState="noTick"/>
    <eventOccurrences referedElement="//@references.6" isClockDead="true" counter="1" eState="noTick" fState="noTick"/>
  </logicalSteps>
  <logicalSteps nextStep="//@logicalSteps.76" previousStep="//@logicalSteps.74" stepNumber="75">
    <eventOccurrences referedElement="//@references.0" counter="50"/>
    <eventOccurrences referedElement="//@references.1" counter="50"/>
    <eventOccurrences referedElement="//@references.2" counter="50"/>
    <eventOccurrences referedElement="//@references.3" counter="50"/>
    <eventOccurrences referedElement="//@references.4" isClockDead="true" counter="1" eState="noTick" fState="noTick"/>
    <eventOccurrences referedElement="//@references.5" isClockDead="true" counter="2" eState="noTick" fState="noTick"/>
    <eventOccurrences referedElement="//@references.6" isClockDead="true" counter="1" eState="noTick" fState="noTick"/>
  </logicalSteps>
  <logicalSteps nextStep="//@logicalSteps.77" previousStep="//@logicalSteps.75" stepNumber="76">
    <eventOccurrences referedElement="//@references.0" counter="51"/>
    <eventOccurrences referedElement="//@references.1" counter="51"/>
    <eventOccurrences referedElement="//@references.2" counter="51"/>
    <eventOccurrences referedElement="//@references.3" counter="51"/>
    <eventOccurrences referedElement="//@references.4" isClockDead="true" counter="1" eState="noTick" fState="noTick"/>
    <eventOccurrences referedElement="//@references.5" isClockDead="true" counter="2" eState="noTick" fState="noTick"/>
    <eventOccurrences referedElement="//@references.6" isClockDead="true" counter="1" eState="noTick" fState="noTick"/>
  </logicalSteps>
  <logicalSteps nextStep="//@logicalSteps.78" previousStep="//@logicalSteps.76" stepNumber="77">
    <eventOccurrences referedElement="//@references.0" counter="51" eState="noTick" fState="noTick"/>
    <eventOccurrences referedElement="//@references.1" counter="52"/>
    <eventOccurrences referedElement="//@references.2" counter="51" eState="noTick" fState="noTick"/>
    <eventOccurrences referedElement="//@references.3" counter="51" eState="noTick" fState="noTick"/>
    <eventOccurrences referedElement="//@references.4" isClockDead="true" counter="1" eState="noTick" fState="noTick"/>
    <eventOccurrences referedElement="//@references.5" isClockDead="true" counter="2" eState="noTick" fState="noTick"/>
    <eventOccurrences referedElement="//@references.6" isClockDead="true" counter="1" eState="noTick" fState="noTick"/>
  </logicalSteps>
  <logicalSteps nextStep="//@logicalSteps.79" previousStep="//@logicalSteps.77" stepNumber="78">
    <eventOccurrences referedElement="//@references.0" counter="51" eState="noTick" fState="noTick"/>
    <eventOccurrences referedElement="//@references.1" counter="53"/>
    <eventOccurrences referedElement="//@references.2" counter="51" eState="noTick" fState="noTick"/>
    <eventOccurrences referedElement="//@references.3" counter="51" eState="noTick" fState="noTick"/>
    <eventOccurrences referedElement="//@references.4" isClockDead="true" counter="1" eState="noTick" fState="noTick"/>
    <eventOccurrences referedElement="//@references.5" isClockDead="true" counter="2" eState="noTick" fState="noTick"/>
    <eventOccurrences referedElement="//@references.6" isClockDead="true" counter="1" eState="noTick" fState="noTick"/>
  </logicalSteps>
  <logicalSteps nextStep="//@logicalSteps.80" previousStep="//@logicalSteps.78" stepNumber="79">
    <eventOccurrences referedElement="//@references.0" counter="51" eState="noTick" fState="noTick"/>
    <eventOccurrences referedElement="//@references.1" counter="54"/>
    <eventOccurrences referedElement="//@references.2" counter="51" eState="noTick" fState="noTick"/>
    <eventOccurrences referedElement="//@references.3" counter="51" eState="noTick" fState="noTick"/>
    <eventOccurrences referedElement="//@references.4" isClockDead="true" counter="1" eState="noTick" fState="noTick"/>
    <eventOccurrences referedElement="//@references.5" isClockDead="true" counter="2" eState="noTick" fState="noTick"/>
    <eventOccurrences referedElement="//@references.6" isClockDead="true" counter="1" eState="noTick" fState="noTick"/>
  </logicalSteps>
  <logicalSteps nextStep="//@logicalSteps.81" previousStep="//@logicalSteps.79" stepNumber="80">
    <eventOccurrences referedElement="//@references.0" counter="52"/>
    <eventOccurrences referedElement="//@references.1" counter="55"/>
    <eventOccurrences referedElement="//@references.2" counter="52"/>
    <eventOccurrences referedElement="//@references.3" counter="52"/>
    <eventOccurrences referedElement="//@references.4" isClockDead="true" counter="1" eState="noTick" fState="noTick"/>
    <eventOccurrences referedElement="//@references.5" isClockDead="true" counter="2" eState="noTick" fState="noTick"/>
    <eventOccurrences referedElement="//@references.6" isClockDead="true" counter="1" eState="noTick" fState="noTick"/>
  </logicalSteps>
  <logicalSteps nextStep="//@logicalSteps.82" previousStep="//@logicalSteps.80" stepNumber="81">
    <eventOccurrences referedElement="//@references.0" counter="52" eState="noTick" fState="noTick"/>
    <eventOccurrences referedElement="//@references.1" counter="56"/>
    <eventOccurrences referedElement="//@references.2" counter="52" eState="noTick" fState="noTick"/>
    <eventOccurrences referedElement="//@references.3" counter="52" eState="noTick" fState="noTick"/>
    <eventOccurrences referedElement="//@references.4" isClockDead="true" counter="1" eState="noTick" fState="noTick"/>
    <eventOccurrences referedElement="//@references.5" isClockDead="true" counter="2" eState="noTick" fState="noTick"/>
    <eventOccurrences referedElement="//@references.6" isClockDead="true" counter="1" eState="noTick" fState="noTick"/>
  </logicalSteps>
  <logicalSteps nextStep="//@logicalSteps.83" previousStep="//@logicalSteps.81" stepNumber="82">
    <eventOccurrences referedElement="//@references.0" counter="52" eState="noTick" fState="noTick"/>
    <eventOccurrences referedElement="//@references.1" counter="57"/>
    <eventOccurrences referedElement="//@references.2" counter="52" eState="noTick" fState="noTick"/>
    <eventOccurrences referedElement="//@references.3" counter="52" eState="noTick" fState="noTick"/>
    <eventOccurrences referedElement="//@references.4" isClockDead="true" counter="1" eState="noTick" fState="noTick"/>
    <eventOccurrences referedElement="//@references.5" isClockDead="true" counter="2" eState="noTick" fState="noTick"/>
    <eventOccurrences referedElement="//@references.6" isClockDead="true" counter="1" eState="noTick" fState="noTick"/>
  </logicalSteps>
  <logicalSteps nextStep="//@logicalSteps.84" previousStep="//@logicalSteps.82" stepNumber="83">
    <eventOccurrences referedElement="//@references.0" counter="53"/>
    <eventOccurrences referedElement="//@references.1" counter="58"/>
    <eventOccurrences referedElement="//@references.2" counter="53"/>
    <eventOccurrences referedElement="//@references.3" counter="53"/>
    <eventOccurrences referedElement="//@references.4" isClockDead="true" counter="1" eState="noTick" fState="noTick"/>
    <eventOccurrences referedElement="//@references.5" isClockDead="true" counter="2" eState="noTick" fState="noTick"/>
    <eventOccurrences referedElement="//@references.6" isClockDead="true" counter="1" eState="noTick" fState="noTick"/>
  </logicalSteps>
  <logicalSteps nextStep="//@logicalSteps.85" previousStep="//@logicalSteps.83" stepNumber="84">
    <eventOccurrences referedElement="//@references.0" counter="54"/>
    <eventOccurrences referedElement="//@references.1" counter="58" eState="noTick" fState="noTick"/>
    <eventOccurrences referedElement="//@references.2" counter="54"/>
    <eventOccurrences referedElement="//@references.3" counter="54"/>
    <eventOccurrences referedElement="//@references.4" isClockDead="true" counter="1" eState="noTick" fState="noTick"/>
    <eventOccurrences referedElement="//@references.5" isClockDead="true" counter="2" eState="noTick" fState="noTick"/>
    <eventOccurrences referedElement="//@references.6" isClockDead="true" counter="1" eState="noTick" fState="noTick"/>
  </logicalSteps>
  <logicalSteps nextStep="//@logicalSteps.86" previousStep="//@logicalSteps.84" stepNumber="85">
    <eventOccurrences referedElement="//@references.0" counter="54" eState="noTick" fState="noTick"/>
    <eventOccurrences referedElement="//@references.1" counter="59"/>
    <eventOccurrences referedElement="//@references.2" counter="54" eState="noTick" fState="noTick"/>
    <eventOccurrences referedElement="//@references.3" counter="54" eState="noTick" fState="noTick"/>
    <eventOccurrences referedElement="//@references.4" isClockDead="true" counter="1" eState="noTick" fState="noTick"/>
    <eventOccurrences referedElement="//@references.5" isClockDead="true" counter="2" eState="noTick" fState="noTick"/>
    <eventOccurrences referedElement="//@references.6" isClockDead="true" counter="1" eState="noTick" fState="noTick"/>
  </logicalSteps>
  <logicalSteps nextStep="//@logicalSteps.87" previousStep="//@logicalSteps.85" stepNumber="86">
    <eventOccurrences referedElement="//@references.0" counter="54" eState="noTick" fState="noTick"/>
    <eventOccurrences referedElement="//@references.1" counter="60"/>
    <eventOccurrences referedElement="//@references.2" counter="54" eState="noTick" fState="noTick"/>
    <eventOccurrences referedElement="//@references.3" counter="54" eState="noTick" fState="noTick"/>
    <eventOccurrences referedElement="//@references.4" isClockDead="true" counter="1" eState="noTick" fState="noTick"/>
    <eventOccurrences referedElement="//@references.5" isClockDead="true" counter="2" eState="noTick" fState="noTick"/>
    <eventOccurrences referedElement="//@references.6" isClockDead="true" counter="1" eState="noTick" fState="noTick"/>
  </logicalSteps>
  <logicalSteps nextStep="//@logicalSteps.88" previousStep="//@logicalSteps.86" stepNumber="87">
    <eventOccurrences referedElement="//@references.0" counter="55"/>
    <eventOccurrences referedElement="//@references.1" counter="61"/>
    <eventOccurrences referedElement="//@references.2" counter="55"/>
    <eventOccurrences referedElement="//@references.3" counter="55"/>
    <eventOccurrences referedElement="//@references.4" isClockDead="true" counter="1" eState="noTick" fState="noTick"/>
    <eventOccurrences referedElement="//@references.5" isClockDead="true" counter="2" eState="noTick" fState="noTick"/>
    <eventOccurrences referedElement="//@references.6" isClockDead="true" counter="1" eState="noTick" fState="noTick"/>
  </logicalSteps>
  <logicalSteps nextStep="//@logicalSteps.89" previousStep="//@logicalSteps.87" stepNumber="88">
    <eventOccurrences referedElement="//@references.0" counter="55" eState="noTick" fState="noTick"/>
    <eventOccurrences referedElement="//@references.1" counter="62"/>
    <eventOccurrences referedElement="//@references.2" counter="55" eState="noTick" fState="noTick"/>
    <eventOccurrences referedElement="//@references.3" counter="55" eState="noTick" fState="noTick"/>
    <eventOccurrences referedElement="//@references.4" isClockDead="true" counter="1" eState="noTick" fState="noTick"/>
    <eventOccurrences referedElement="//@references.5" isClockDead="true" counter="2" eState="noTick" fState="noTick"/>
    <eventOccurrences referedElement="//@references.6" isClockDead="true" counter="1" eState="noTick" fState="noTick"/>
  </logicalSteps>
  <logicalSteps nextStep="//@logicalSteps.90" previousStep="//@logicalSteps.88" stepNumber="89">
    <eventOccurrences referedElement="//@references.0" counter="55" eState="noTick" fState="noTick"/>
    <eventOccurrences referedElement="//@references.1" counter="63"/>
    <eventOccurrences referedElement="//@references.2" counter="55" eState="noTick" fState="noTick"/>
    <eventOccurrences referedElement="//@references.3" counter="55" eState="noTick" fState="noTick"/>
    <eventOccurrences referedElement="//@references.4" isClockDead="true" counter="1" eState="noTick" fState="noTick"/>
    <eventOccurrences referedElement="//@references.5" isClockDead="true" counter="2" eState="noTick" fState="noTick"/>
    <eventOccurrences referedElement="//@references.6" isClockDead="true" counter="1" eState="noTick" fState="noTick"/>
  </logicalSteps>
  <logicalSteps nextStep="//@logicalSteps.91" previousStep="//@logicalSteps.89" stepNumber="90">
    <eventOccurrences referedElement="//@references.0" counter="56"/>
    <eventOccurrences referedElement="//@references.1" counter="63" eState="noTick" fState="noTick"/>
    <eventOccurrences referedElement="//@references.2" counter="56"/>
    <eventOccurrences referedElement="//@references.3" counter="56"/>
    <eventOccurrences referedElement="//@references.4" isClockDead="true" counter="1" eState="noTick" fState="noTick"/>
    <eventOccurrences referedElement="//@references.5" isClockDead="true" counter="2" eState="noTick" fState="noTick"/>
    <eventOccurrences referedElement="//@references.6" isClockDead="true" counter="1" eState="noTick" fState="noTick"/>
  </logicalSteps>
  <logicalSteps nextStep="//@logicalSteps.92" previousStep="//@logicalSteps.90" stepNumber="91">
    <eventOccurrences referedElement="//@references.0" counter="56" eState="noTick" fState="noTick"/>
    <eventOccurrences referedElement="//@references.1" counter="64"/>
    <eventOccurrences referedElement="//@references.2" counter="56" eState="noTick" fState="noTick"/>
    <eventOccurrences referedElement="//@references.3" counter="56" eState="noTick" fState="noTick"/>
    <eventOccurrences referedElement="//@references.4" isClockDead="true" counter="1" eState="noTick" fState="noTick"/>
    <eventOccurrences referedElement="//@references.5" isClockDead="true" counter="2" eState="noTick" fState="noTick"/>
    <eventOccurrences referedElement="//@references.6" isClockDead="true" counter="1" eState="noTick" fState="noTick"/>
  </logicalSteps>
  <logicalSteps nextStep="//@logicalSteps.93" previousStep="//@logicalSteps.91" stepNumber="92">
    <eventOccurrences referedElement="//@references.0" counter="56" eState="noTick" fState="noTick"/>
    <eventOccurrences referedElement="//@references.1" counter="65"/>
    <eventOccurrences referedElement="//@references.2" counter="56" eState="noTick" fState="noTick"/>
    <eventOccurrences referedElement="//@references.3" counter="56" eState="noTick" fState="noTick"/>
    <eventOccurrences referedElement="//@references.4" isClockDead="true" counter="1" eState="noTick" fState="noTick"/>
    <eventOccurrences referedElement="//@references.5" isClockDead="true" counter="2" eState="noTick" fState="noTick"/>
    <eventOccurrences referedElement="//@references.6" isClockDead="true" counter="1" eState="noTick" fState="noTick"/>
  </logicalSteps>
  <logicalSteps nextStep="//@logicalSteps.94" previousStep="//@logicalSteps.92" stepNumber="93">
    <eventOccurrences referedElement="//@references.0" counter="57"/>
    <eventOccurrences referedElement="//@references.1" counter="66"/>
    <eventOccurrences referedElement="//@references.2" counter="57"/>
    <eventOccurrences referedElement="//@references.3" counter="57"/>
    <eventOccurrences referedElement="//@references.4" isClockDead="true" counter="1" eState="noTick" fState="noTick"/>
    <eventOccurrences referedElement="//@references.5" isClockDead="true" counter="2" eState="noTick" fState="noTick"/>
    <eventOccurrences referedElement="//@references.6" isClockDead="true" counter="1" eState="noTick" fState="noTick"/>
  </logicalSteps>
  <logicalSteps nextStep="//@logicalSteps.95" previousStep="//@logicalSteps.93" stepNumber="94">
    <eventOccurrences referedElement="//@references.0" counter="57" eState="noTick" fState="noTick"/>
    <eventOccurrences referedElement="//@references.1" counter="67"/>
    <eventOccurrences referedElement="//@references.2" counter="57" eState="noTick" fState="noTick"/>
    <eventOccurrences referedElement="//@references.3" counter="57" eState="noTick" fState="noTick"/>
    <eventOccurrences referedElement="//@references.4" isClockDead="true" counter="1" eState="noTick" fState="noTick"/>
    <eventOccurrences referedElement="//@references.5" isClockDead="true" counter="2" eState="noTick" fState="noTick"/>
    <eventOccurrences referedElement="//@references.6" isClockDead="true" counter="1" eState="noTick" fState="noTick"/>
  </logicalSteps>
  <logicalSteps nextStep="//@logicalSteps.96" previousStep="//@logicalSteps.94" stepNumber="95">
    <eventOccurrences referedElement="//@references.0" counter="57" eState="noTick" fState="noTick"/>
    <eventOccurrences referedElement="//@references.1" counter="68"/>
    <eventOccurrences referedElement="//@references.2" counter="57" eState="noTick" fState="noTick"/>
    <eventOccurrences referedElement="//@references.3" counter="57" eState="noTick" fState="noTick"/>
    <eventOccurrences referedElement="//@references.4" isClockDead="true" counter="1" eState="noTick" fState="noTick"/>
    <eventOccurrences referedElement="//@references.5" isClockDead="true" counter="2" eState="noTick" fState="noTick"/>
    <eventOccurrences referedElement="//@references.6" isClockDead="true" counter="1" eState="noTick" fState="noTick"/>
  </logicalSteps>
  <logicalSteps nextStep="//@logicalSteps.97" previousStep="//@logicalSteps.95" stepNumber="96">
    <eventOccurrences referedElement="//@references.0" counter="57" eState="noTick" fState="noTick"/>
    <eventOccurrences referedElement="//@references.1" counter="69"/>
    <eventOccurrences referedElement="//@references.2" counter="57" eState="noTick" fState="noTick"/>
    <eventOccurrences referedElement="//@references.3" counter="57" eState="noTick" fState="noTick"/>
    <eventOccurrences referedElement="//@references.4" isClockDead="true" counter="1" eState="noTick" fState="noTick"/>
    <eventOccurrences referedElement="//@references.5" isClockDead="true" counter="2" eState="noTick" fState="noTick"/>
    <eventOccurrences referedElement="//@references.6" isClockDead="true" counter="1" eState="noTick" fState="noTick"/>
  </logicalSteps>
  <logicalSteps nextStep="//@logicalSteps.98" previousStep="//@logicalSteps.96" stepNumber="97">
    <eventOccurrences referedElement="//@references.0" counter="58"/>
    <eventOccurrences referedElement="//@references.1" counter="69" eState="noTick" fState="noTick"/>
    <eventOccurrences referedElement="//@references.2" counter="58"/>
    <eventOccurrences referedElement="//@references.3" counter="58"/>
    <eventOccurrences referedElement="//@references.4" isClockDead="true" counter="1" eState="noTick" fState="noTick"/>
    <eventOccurrences referedElement="//@references.5" isClockDead="true" counter="2" eState="noTick" fState="noTick"/>
    <eventOccurrences referedElement="//@references.6" isClockDead="true" counter="1" eState="noTick" fState="noTick"/>
  </logicalSteps>
  <logicalSteps nextStep="//@logicalSteps.99" previousStep="//@logicalSteps.97" stepNumber="98">
    <eventOccurrences referedElement="//@references.0" counter="58" eState="noTick" fState="noTick"/>
    <eventOccurrences referedElement="//@references.1" counter="70"/>
    <eventOccurrences referedElement="//@references.2" counter="58" eState="noTick" fState="noTick"/>
    <eventOccurrences referedElement="//@references.3" counter="58" eState="noTick" fState="noTick"/>
    <eventOccurrences referedElement="//@references.4" isClockDead="true" counter="1" eState="noTick" fState="noTick"/>
    <eventOccurrences referedElement="//@references.5" isClockDead="true" counter="2" eState="noTick" fState="noTick"/>
    <eventOccurrences referedElement="//@references.6" isClockDead="true" counter="1" eState="noTick" fState="noTick"/>
  </logicalSteps>
  <logicalSteps previousStep="//@logicalSteps.98" stepNumber="99">
    <eventOccurrences referedElement="//@references.0" counter="59"/>
    <eventOccurrences referedElement="//@references.1" counter="71"/>
    <eventOccurrences referedElement="//@references.2" counter="59"/>
    <eventOccurrences referedElement="//@references.3" counter="59"/>
    <eventOccurrences referedElement="//@references.4" isClockDead="true" counter="1" eState="noTick" fState="noTick"/>
    <eventOccurrences referedElement="//@references.5" isClockDead="true" counter="2" eState="noTick" fState="noTick"/>
    <eventOccurrences referedElement="//@references.6" isClockDead="true" counter="1" eState="noTick" fState="noTick"/>
  </logicalSteps>
  <references xsi:type="trace:ModelElementReference">
    <elementRef href="Concat3StartSemantics.extendedCCSL#/"/>
    <elementRef href="Concat3StartSemantics.extendedCCSL#//@subBlock.0"/>
    <elementRef href="Concat3StartSemantics.extendedCCSL#//@subBlock.0/@elements.2"/>
  </references>
  <references xsi:type="trace:ModelElementReference">
    <elementRef href="Concat3StartSemantics.extendedCCSL#/"/>
    <elementRef href="Concat3StartSemantics.extendedCCSL#//@subBlock.0"/>
    <elementRef href="Concat3StartSemantics.extendedCCSL#//@subBlock.0/@elements.0"/>
  </references>
  <references xsi:type="trace:ModelElementReference">
    <elementRef href="Concat3StartSemantics.extendedCCSL#/"/>
    <elementRef href="Concat3StartSemantics.extendedCCSL#//@subBlock.0"/>
    <elementRef href="Concat3StartSemantics.extendedCCSL#//@subBlock.0/@elements.1"/>
  </references>
  <references xsi:type="trace:ModelElementReference">
    <elementRef href="Concat3StartSemantics.extendedCCSL#/"/>
    <elementRef href="Concat3StartSemantics.extendedCCSL#//@subBlock.0"/>
    <elementRef href="Concat3StartSemantics.extendedCCSL#//@subBlock.0/@expressions.3"/>
  </references>
  <references xsi:type="trace:ModelElementReference">
    <elementRef href="Concat3StartSemantics.extendedCCSL#/"/>
    <elementRef href="Concat3StartSemantics.extendedCCSL#//@subBlock.0"/>
    <elementRef href="Concat3StartSemantics.extendedCCSL#//@subBlock.0/@expressions.1"/>
  </references>
  <references xsi:type="trace:ModelElementReference">
    <elementRef href="Concat3StartSemantics.extendedCCSL#/"/>
    <elementRef href="Concat3StartSemantics.extendedCCSL#//@subBlock.0"/>
    <elementRef href="Concat3StartSemantics.extendedCCSL#//@subBlock.0/@expressions.2"/>
  </references>
  <references xsi:type="trace:ModelElementReference">
    <elementRef href="Concat3StartSemantics.extendedCCSL#/"/>
    <elementRef href="Concat3StartSemantics.extendedCCSL#//@subBlock.0"/>
    <elementRef href="Concat3StartSemantics.extendedCCSL#//@subBlock.0/@expressions.0"/>
  </references>
  <references xsi:type="trace:ModelElementReference">
    <elementRef href="Concat3StartSemantics.extendedCCSL#/"/>
    <elementRef href="Concat3StartSemantics.extendedCCSL#//@subBlock.0"/>
    <elementRef href="Concat3StartSemantics.extendedCCSL#//@subBlock.0/@relations.0"/>
  </references>
</trace:Trace>
