digraph {
	rankdir=LR;
	start=0;
	node [style="filled"]

	0 [fillcolor="#ffffff", size="10", shape="circle", fontcolor="black", label="994578433"];

	0 -> 0 [penwidth="1", color="#aaaaaa", style="solid", label="[c2, c1, c3]"];
	0 -> 0 [penwidth="1", color="#aaaaaa", style="solid", label="[c2]"];
	0 -> 0 [penwidth="1", color="#aaaaaa", style="solid", label="[c1]"];
}