digraph {
	rankdir=LR;
	start=0;
	node [style="filled"]

	0 [fillcolor="#ffffff", size="10", shape="circle", fontcolor="black", label="177232885"];
	1 [fillcolor="#ffffff", size="10", shape="circle", fontcolor="black", label="548993022"];

	1 -> 1 [penwidth="1", color="#aaaaaa", style="solid", label="[C1]()"];
	0 -> 1 [penwidth="1", color="#aaaaaa", style="solid", label="[C3 C1 C2]()"];
}