digraph {
	rankdir=LR;
	start=0;
	node [style="filled"]

	0 [fillcolor="#ffffff", size="10", shape="circle", fontcolor="black", label="158669399"];
	1 [fillcolor="#ffffff", size="10", shape="circle", fontcolor="black", label="1132934531"];
	2 [fillcolor="#ffffff", size="10", shape="circle", fontcolor="black", label="1354797675"];
	3 [fillcolor="#ffffff", size="10", shape="circle", fontcolor="black", label="80703044"];

	1 -> 1 [penwidth="1", color="#aaaaaa", style="solid", label="c3()"];
	2 -> 2 [penwidth="1", color="#aaaaaa", style="solid", label="c3()"];
	3 -> 2 [penwidth="1", color="#aaaaaa", style="solid", label="c2  c1(c3)"];
	3 -> 0 [penwidth="1", color="#aaaaaa", style="solid", label="c3()"];
	0 -> 0 [penwidth="1", color="#aaaaaa", style="solid", label="c3()"];
	2 -> 2 [penwidth="1", color="#aaaaaa", style="solid", label=" (c3, c1)"];
	1 -> 3 [penwidth="1", color="#aaaaaa", style="solid", label=" c1(c3)"];
	0 -> 2 [penwidth="1", color="#aaaaaa", style="solid", label="c2  c1(c3)"];
}