$date 
Fri Dec 09 15:01:46 CET 2016
$end

$version 
VCD Generation 2.1.0
$end

$comment alias newfile__main__c1 "newfile::main::c1" $end
$comment alias newfile__main__c2 "newfile::main::c2" $end
$comment alias newfile__main__c3 "newfile::main::c3" $end
$comment alias newfile__main__expression_1 "newfile::main::expression_1" $end
$comment alias newfile__main__expression_2 "newfile::main::expression_2" $end
$comment alias newfile__main__wait1 "newfile::main::wait1" $end
$comment alias newfile__main__wait2 "newfile::main::wait2" $end
$comment scale 0.1  $end
$comment relation   "FromMathieu2016_1209_150146.ccslrelationmodel" $end
$comment xmi  newfile__main__c3 "FromMathieu2016_1209_150146.trace#//@references.0" $end
$comment xmi  newfile__main__c2 "FromMathieu2016_1209_150146.trace#//@references.1" $end
$comment xmi  newfile__main__c1 "FromMathieu2016_1209_150146.trace#//@references.2" $end
$comment xmi  newfile__main__expression_1 "FromMathieu2016_1209_150146.trace#//@references.3" $end
$comment xmi  newfile__main__expression_2 "FromMathieu2016_1209_150146.trace#//@references.4" $end
$comment xmi  newfile__main__wait2 "FromMathieu2016_1209_150146.trace#//@references.5" $end
$comment xmi  newfile__main__wait1 "FromMathieu2016_1209_150146.trace#//@references.6" $end
$scope module top $end
$var event 1 !1 newfile__main__c1 $end
$var event 1 !2 newfile__main__c2 $end
$var event 1 !3 newfile__main__c3 $end
$var event 1 !4 newfile__main__expression_1 $end
$var event 1 !5 newfile__main__expression_2 $end
$var event 1 !6 newfile__main__wait1 $end
$var event 1 !7 newfile__main__wait2 $end
$upscope $end
$enddefinitions $end

#0
1!1
#10
1!2
#20
1!2
1!1
#30
1!1
#40
1!2
#50
1!3
1!1
1!4
1!5
1!7
1!6
#60
1!2
z!4
z!6
#70
1!3
1!2
1!1
z!4
1!5
z!6
#80
1!3
1!2
1!1
z!4
1!5
z!6
#90
1!1
z!4
z!6
#100
1!3
1!2
z!4
1!5
z!6
#110
z!4
z!6
#120
z!4
z!6
#130
z!4
z!6
#140
z!4
z!6
#150
z!4
z!6
#160
z!4
z!6
#170
z!4
z!6
#180
z!4
z!6
#190
z!4
z!6
#200
z!4
z!6
#210
z!4
z!6
#220
z!4
z!6
#230
z!4
z!6
#240
z!4
z!6
#250
z!4
z!6
#260
z!4
z!6
#270
z!4
z!6
#280
z!4
z!6
#290
z!4
z!6
#300
z!4
z!6
#310
z!4
z!6
#320
z!4
z!6
#330
z!4
z!6
#340
z!4
z!6
#350
z!4
z!6
#360
z!4
z!6
#370
z!4
z!6
#380
z!4
z!6
#390
z!4
z!6
#400
z!4
z!6
#410
z!4
z!6
#420
z!4
z!6
#430
z!4
z!6
#440
z!4
z!6
#450
z!4
z!6
#460
z!4
z!6
#470
z!4
z!6
#480
z!4
z!6
#490
z!4
z!6
#500
z!4
z!6
#510
z!4
z!6
#520
z!4
z!6
#530
z!4
z!6
#540
z!4
z!6
#550
z!4
z!6
#560
z!4
z!6
#570
z!4
z!6
#580
z!4
z!6
#590
z!4
z!6
#600
z!4
z!6
#610
z!4
z!6
#620
z!4
z!6
#630
z!4
z!6
#640
z!4
z!6
#650
z!4
z!6
#660
z!4
z!6
#670
z!4
z!6
#680
z!4
z!6
#690
z!4
z!6
#700
z!4
z!6
#710
z!4
z!6
#720
z!4
z!6
#730
z!4
z!6
#740
z!4
z!6
#750
z!4
z!6
#760
z!4
z!6
#770
z!4
z!6
#780
z!4
z!6
#790
z!4
z!6
#800
z!4
z!6
#810
z!4
z!6
#820
z!4
z!6
#830
z!4
z!6
#840
z!4
z!6
#850
z!4
z!6
#860
z!4
z!6
#870
z!4
z!6
#880
z!4
z!6
#890
z!4
z!6
#900
z!4
z!6
#910
z!4
z!6
#920
z!4
z!6
#930
z!4
z!6
#940
z!4
z!6
#950
z!4
z!6
#960
z!4
z!6
#970
z!4
z!6
#980
z!4
z!6
#990
z!4
z!6
#1000
z!1
z!2
z!3
z!4
z!5
z!6
z!7
