$date 
Fri Dec 09 15:09:29 CET 2016
$end

$version 
VCD Generation 2.1.0
$end

$comment alias TestSpec__main__C1 "TestSpec::main::C1" $end
$comment alias TestSpec__main__C2 "TestSpec::main::C2" $end
$comment alias TestSpec__main__C3 "TestSpec::main::C3" $end
$comment alias TestSpec__main__Concat1 "TestSpec::main::Concat1" $end
$comment alias TestSpec__main__Concat2 "TestSpec::main::Concat2" $end
$comment alias TestSpec__main__WaitC1by2 "TestSpec::main::WaitC1by2" $end
$comment alias TestSpec__main__WaitC1by3 "TestSpec::main::WaitC1by3" $end
$comment scale 0.1  $end
$comment relation   "Concat3StartSemantics2016_1209_150928.ccslrelationmodel" $end
$comment xmi  TestSpec__main__C1 "Concat3StartSemantics2016_1209_150928.trace#//@references.0" $end
$comment xmi  TestSpec__main__C2 "Concat3StartSemantics2016_1209_150928.trace#//@references.1" $end
$comment xmi  TestSpec__main__C3 "Concat3StartSemantics2016_1209_150928.trace#//@references.2" $end
$comment xmi  TestSpec__main__WaitC1by3 "Concat3StartSemantics2016_1209_150928.trace#//@references.3" $end
$comment xmi  TestSpec__main__WaitC1by2 "Concat3StartSemantics2016_1209_150928.trace#//@references.4" $end
$comment xmi  TestSpec__main__Concat2 "Concat3StartSemantics2016_1209_150928.trace#//@references.5" $end
$comment xmi  TestSpec__main__Concat1 "Concat3StartSemantics2016_1209_150928.trace#//@references.6" $end
$scope module top $end
$var event 1 !1 TestSpec__main__C1 $end
$var event 1 !2 TestSpec__main__C2 $end
$var event 1 !3 TestSpec__main__C3 $end
$var event 1 !4 TestSpec__main__Concat1 $end
$var event 1 !5 TestSpec__main__Concat2 $end
$var event 1 !6 TestSpec__main__WaitC1by2 $end
$var event 1 !7 TestSpec__main__WaitC1by3 $end
$upscope $end
$enddefinitions $end

#0
1!2
#10
1!1
1!2
#20
1!1
1!2
#30
1!1
1!2
1!7
#40
1!2
z!7
#50
1!1
1!3
1!6
1!5
1!4
#60
1!1
z!6
z!4
#70
1!1
z!6
z!4
#80
1!2
1!3
z!6
1!5
z!4
#90
1!2
1!3
z!6
1!5
z!4
#100
1!2
1!3
z!6
1!5
z!4
#110
1!2
1!3
z!6
1!5
z!4
#120
1!2
1!3
z!6
1!5
z!4
#130
1!2
1!3
z!6
1!5
z!4
#140
1!2
1!3
z!6
1!5
z!4
#150
1!2
1!3
z!6
1!5
z!4
#160
1!2
1!3
z!6
1!5
z!4
#170
1!2
1!3
z!6
1!5
z!4
#180
1!2
1!3
z!6
1!5
z!4
#190
1!2
1!3
z!6
1!5
z!4
#200
1!2
1!3
z!6
1!5
z!4
#210
1!2
1!3
z!6
1!5
z!4
#220
1!2
1!3
z!6
1!5
z!4
#230
1!2
1!3
z!6
1!5
z!4
#240
1!2
1!3
z!6
1!5
z!4
#250
1!2
1!3
z!6
1!5
z!4
#260
1!2
1!3
z!6
1!5
z!4
#270
1!2
1!3
z!6
1!5
z!4
#280
1!2
1!3
z!6
1!5
z!4
#290
1!2
1!3
z!6
1!5
z!4
#300
1!2
1!3
z!6
1!5
z!4
#310
1!2
1!3
z!6
1!5
z!4
#320
1!2
1!3
z!6
1!5
z!4
#330
1!2
1!3
z!6
1!5
z!4
#340
1!2
1!3
z!6
1!5
z!4
#350
1!2
1!3
z!6
1!5
z!4
#360
1!2
1!3
z!6
1!5
z!4
#370
1!2
1!3
z!6
1!5
z!4
#380
1!2
1!3
z!6
1!5
z!4
#390
1!2
1!3
z!6
1!5
z!4
#400
1!2
1!3
z!6
1!5
z!4
#410
1!2
1!3
z!6
1!5
z!4
#420
1!2
1!3
z!6
1!5
z!4
#430
1!2
1!3
z!6
1!5
z!4
#440
1!2
1!3
z!6
1!5
z!4
#450
1!2
1!3
z!6
1!5
z!4
#460
1!2
1!3
z!6
1!5
z!4
#470
1!2
1!3
z!6
1!5
z!4
#480
1!2
1!3
z!6
1!5
z!4
#490
1!2
1!3
z!6
1!5
z!4
#500
1!2
1!3
z!6
1!5
z!4
#510
1!2
1!3
z!6
1!5
z!4
#520
1!2
1!3
z!6
1!5
z!4
#530
1!2
1!3
z!6
1!5
z!4
#540
1!2
1!3
z!6
1!5
z!4
#550
1!2
1!3
z!6
1!5
z!4
#560
1!2
1!3
z!6
1!5
z!4
#570
1!2
1!3
z!6
1!5
z!4
#580
1!2
1!3
z!6
1!5
z!4
#590
1!2
1!3
z!6
1!5
z!4
#600
1!2
1!3
z!6
1!5
z!4
#610
1!2
1!3
z!6
1!5
z!4
#620
1!2
1!3
z!6
1!5
z!4
#630
1!2
1!3
z!6
1!5
z!4
#640
1!2
1!3
z!6
1!5
z!4
#650
1!2
1!3
z!6
1!5
z!4
#660
1!2
1!3
z!6
1!5
z!4
#670
1!2
1!3
z!6
1!5
z!4
#680
1!2
1!3
z!6
1!5
z!4
#690
1!2
1!3
z!6
1!5
z!4
#700
1!2
1!3
z!6
1!5
z!4
#710
1!2
1!3
z!6
1!5
z!4
#720
1!2
1!3
z!6
1!5
z!4
#730
1!2
1!3
z!6
1!5
z!4
#740
1!2
1!3
z!6
1!5
z!4
#750
1!2
1!3
z!6
1!5
z!4
#760
1!2
1!3
z!6
1!5
z!4
#770
1!2
1!3
z!6
1!5
z!4
#780
1!2
1!3
z!6
1!5
z!4
#790
1!2
1!3
z!6
1!5
z!4
#800
1!2
1!3
z!6
1!5
z!4
#810
1!2
1!3
z!6
1!5
z!4
#820
1!2
1!3
z!6
1!5
z!4
#830
1!2
1!3
z!6
1!5
z!4
#840
1!2
1!3
z!6
1!5
z!4
#850
1!2
1!3
z!6
1!5
z!4
#860
1!2
1!3
z!6
1!5
z!4
#870
1!2
1!3
z!6
1!5
z!4
#880
1!2
1!3
z!6
1!5
z!4
#890
1!2
1!3
z!6
1!5
z!4
#900
1!2
1!3
z!6
1!5
z!4
#910
1!2
1!3
z!6
1!5
z!4
#920
1!2
1!3
z!6
1!5
z!4
#930
1!2
1!3
z!6
1!5
z!4
#940
1!2
1!3
z!6
1!5
z!4
#950
1!2
1!3
z!6
1!5
z!4
#960
1!2
1!3
z!6
1!5
z!4
#970
1!2
1!3
z!6
1!5
z!4
#980
1!2
1!3
z!6
1!5
z!4
#990
1!2
1!3
z!6
1!5
z!4
#1000
z!1
z!2
z!3
z!4
z!5
z!6
z!7
