<?xml version="1.0" encoding="ASCII"?>
<trace:Trace xmlns:xsi="http://www.w3.org/2001/XMLSchema-instance" xmlns:trace="https://team.inria.fr/kairos//trace/1.0.0" name="test12012_1002_170953">
  <references xsi:type="trace:ModelElementReference">
    <elementRef href="test1.extendedCCSL#//@subBlock.0"/>
    <elementRef href="test1.extendedCCSL#//@subBlock.0/@elements.0"/>
  </references>
  <references xsi:type="trace:ModelElementReference">
    <elementRef href="test1.extendedCCSL#//@subBlock.0"/>
    <elementRef href="test1.extendedCCSL#//@subBlock.0/@expressions.0"/>
    <elementRef href="platform:/plugin/fr.inria.aoste.timesquare.ccslkernel.model/ccsllibrary/CCSL.ccslLib#//@expressionLibraries.0/@expressionDefinitions.5"/>
    <elementRef href="platform:/plugin/fr.inria.aoste.timesquare.ccslkernel.model/ccsllibrary/CCSL.ccslLib#//@expressionLibraries.0/@expressionDefinitions.5/@concreteEntities.0"/>
  </references>
  <references xsi:type="trace:ModelElementReference">
    <elementRef href="test1.extendedCCSL#//@subBlock.0"/>
    <elementRef href="test1.extendedCCSL#//@subBlock.0/@expressions.1"/>
    <elementRef href="tesDeath.ccslLib#//@expressionLibraries.0/@expressionDefinitions.0"/>
    <elementRef href="tesDeath.ccslLib#//@expressionLibraries.0/@expressionDefinitions.0/@concreteEntities.0"/>
  </references>
  <references xsi:type="trace:ModelElementReference">
    <elementRef href="test1.extendedCCSL#//@subBlock.0"/>
    <elementRef href="test1.extendedCCSL#//@subBlock.0/@expressions.0"/>
    <elementRef href="platform:/plugin/fr.inria.aoste.timesquare.ccslkernel.model/ccsllibrary/CCSL.ccslLib#//@expressionLibraries.0/@expressionDefinitions.5"/>
    <elementRef href="platform:/plugin/fr.inria.aoste.timesquare.ccslkernel.model/ccsllibrary/CCSL.ccslLib#//@expressionLibraries.0/@expressionDefinitions.5/@exprCases.0/@expression"/>
  </references>
  <references xsi:type="trace:ModelElementReference">
    <elementRef href="test1.extendedCCSL#//@subBlock.0"/>
    <elementRef href="test1.extendedCCSL#//@subBlock.0/@expressions.1"/>
  </references>
  <references xsi:type="trace:ModelElementReference">
    <elementRef href="test1.extendedCCSL#//@subBlock.0"/>
    <elementRef href="test1.extendedCCSL#//@subBlock.0/@expressions.0"/>
    <elementRef href="platform:/plugin/fr.inria.aoste.timesquare.ccslkernel.model/ccsllibrary/CCSL.ccslLib#//@expressionLibraries.0/@expressionDefinitions.5"/>
    <elementRef href="platform:/plugin/fr.inria.aoste.timesquare.ccslkernel.model/ccsllibrary/CCSL.ccslLib#//@expressionLibraries.0/@expressionDefinitions.5/@defaultExpression"/>
  </references>
  <references xsi:type="trace:ModelElementReference">
    <elementRef href="test1.extendedCCSL#//@subBlock.0"/>
    <elementRef href="test1.extendedCCSL#//@subBlock.0/@expressions.0"/>
  </references>
  <references xsi:type="trace:ModelElementReference">
    <elementRef href="test1.extendedCCSL#//@subBlock.0"/>
    <elementRef href="test1.extendedCCSL#//@subBlock.0/@expressions.0"/>
    <elementRef href="platform:/plugin/fr.inria.aoste.timesquare.ccslkernel.model/ccsllibrary/CCSL.ccslLib#//@expressionLibraries.0/@expressionDefinitions.5"/>
    <elementRef href="platform:/plugin/fr.inria.aoste.timesquare.ccslkernel.model/ccsllibrary/CCSL.ccslLib#//@expressionLibraries.0/@expressionDefinitions.5/@concreteEntities.1"/>
  </references>
  <references xsi:type="trace:ModelElementReference">
    <elementRef href="test1.extendedCCSL#//@subBlock.0"/>
    <elementRef href="test1.extendedCCSL#//@subBlock.0/@expressions.0"/>
    <elementRef href="platform:/plugin/fr.inria.aoste.timesquare.ccslkernel.model/ccsllibrary/CCSL.ccslLib#//@expressionLibraries.0/@expressionDefinitions.5"/>
    <elementRef href="platform:/plugin/fr.inria.aoste.timesquare.ccslkernel.model/ccsllibrary/CCSL.ccslLib#//@expressionLibraries.0/@expressionDefinitions.5/@exprCases.1/@expression"/>
  </references>
  <references xsi:type="trace:ModelElementReference">
    <elementRef href="test1.extendedCCSL#//@subBlock.0"/>
    <elementRef href="test1.extendedCCSL#//@subBlock.0/@expressions.1"/>
    <elementRef href="tesDeath.ccslLib#//@expressionLibraries.0/@expressionDefinitions.0"/>
    <elementRef href="tesDeath.ccslLib#//@expressionLibraries.0/@expressionDefinitions.0/@concreteEntities.1"/>
  </references>
</trace:Trace>
