$date 
Wed Mar 07 19:47:39 CET 2012
$end

$version 
VCD Generation 2.1.0
$end

$comment alias mainacquire22a228fd "acquire" $end
$comment alias mainacquire_send29a1758a "acquire_send" $end
$comment alias mainstep1_start47c7d72f "step1_start" $end
$comment alias mainstep1_finish9a6ed366 "step1_finish" $end
$comment alias mainstep2_start7cae1270 "step2_start" $end
$comment alias mainstep2_finish2500045 "step2_finish" $end
$comment alias mainstep3_startb1944db1 "step3_start" $end
$comment alias mainstep3_finish6a312d24 "step3_finish" $end
$comment alias mainrelease_receive4b75fbd2 "release_receive" $end
$comment alias mainreleasea907f02e "release" $end
$comment alias mainmemory_acquirea2bb4191 "memory_acquire" $end
$comment alias mainmemory_release292108c2 "memory_release" $end
$comment alias mainstep1_send12d4af1b "step1_send" $end
$comment alias mainstep2_receivebb0a7571 "step2_receive" $end
$comment alias mainstep2_send148987ba "step2_send" $end
$comment alias mainstep3_receive4f4ee472 "step3_receive" $end
$comment alias mainreceive23ab26a6cb "memory_release" $end
$comment alias mainsend12517c2aa2 "memory_acquire" $end
$comment scale 0.1  $end
$comment relation   "allocation2012_0307_194739.ccslrelationmodel" $end
$comment xmi  mainacquire_send29a1758a "allocation2012_0307_194739.trace#//@references.0" $end
$comment xmi  mainstep2_receivebb0a7571 "allocation2012_0307_194739.trace#//@references.1" $end
$comment xmi  mainstep1_finish9a6ed366 "allocation2012_0307_194739.trace#//@references.2" $end
$comment xmi  mainstep1_send12d4af1b "allocation2012_0307_194739.trace#//@references.3" $end
$comment xmi  mainmemory_acquirea2bb4191 "allocation2012_0307_194739.trace#//@references.4" $end
$comment xmi  mainreleasea907f02e "allocation2012_0307_194739.trace#//@references.9" $end
$comment xmi  mainrelease_receive4b75fbd2 "allocation2012_0307_194739.trace#//@references.13" $end
$comment xmi  mainmemory_release292108c2 "allocation2012_0307_194739.trace#//@references.14" $end
$comment xmi  mainstep2_finish2500045 "allocation2012_0307_194739.trace#//@references.16" $end
$comment xmi  mainstep3_receive4f4ee472 "allocation2012_0307_194739.trace#//@references.18" $end
$comment xmi  mainstep3_startb1944db1 "allocation2012_0307_194739.trace#//@references.23" $end
$comment xmi  mainstep3_finish6a312d24 "allocation2012_0307_194739.trace#//@references.24" $end
$comment xmi  mainacquire22a228fd "allocation2012_0307_194739.trace#//@references.25" $end
$comment xmi  mainstep1_start47c7d72f "allocation2012_0307_194739.trace#//@references.26" $end
$comment xmi  mainstep2_send148987ba "allocation2012_0307_194739.trace#//@references.27" $end
$comment xmi  mainstep2_start7cae1270 "allocation2012_0307_194739.trace#//@references.29" $end
$comment xmi  mainsend12517c2aa2 "allocation2012_0307_194739.trace#//@references.36" $end
$comment xmi  mainreceive23ab26a6cb "allocation2012_0307_194739.trace#//@references.37" $end
$scope module top $end
$var event 1 !1 mainacquire22a228fd $end
$var event 1 !2 mainacquire_send29a1758a $end
$var event 1 !3 mainstep1_start47c7d72f $end
$var event 1 !4 mainstep1_finish9a6ed366 $end
$var event 1 !5 mainstep2_start7cae1270 $end
$var event 1 !6 mainstep2_finish2500045 $end
$var event 1 !7 mainstep3_startb1944db1 $end
$var event 1 !8 mainstep3_finish6a312d24 $end
$var event 1 !9 mainrelease_receive4b75fbd2 $end
$var event 1 !10 mainreleasea907f02e $end
$var event 1 !11 mainmemory_acquirea2bb4191 $end
$var event 1 !12 mainmemory_release292108c2 $end
$var event 1 !13 mainstep1_send12d4af1b $end
$var event 1 !14 mainstep2_receivebb0a7571 $end
$var event 1 !15 mainstep2_send148987ba $end
$var event 1 !16 mainstep3_receive4f4ee472 $end
$var event 1 !17 mainreceive23ab26a6cb $end
$var event 1 !18 mainsend12517c2aa2 $end
$upscope $end
$enddefinitions $end

#0
1!2
0!14
0!4
0!13
0!11
0!10
0!9
0!12
0!6
0!16
0!7
0!8
1!1
1!3
0!15
0!5
0!18
0!17
#2
0!1
0!2
0!3
0!4
0!5
0!6
0!7
0!8
0!9
0!10
0!11
0!12
0!13
0!14
0!15
0!16
0!17
0!18
#10
1!2
0!14
0!4
1!13
1!11
0!10
0!9
0!12
0!6
0!16
0!7
0!8
1!1
0!3
0!15
0!5
1!18
0!17
#12
0!1
0!2
0!3
0!4
0!5
0!6
0!7
0!8
0!9
0!10
0!11
0!12
0!13
0!14
0!15
0!16
0!17
0!18
#20
0!2
0!14
1!4
0!13
0!11
0!10
0!9
0!12
0!6
0!16
0!7
0!8
0!1
0!3
0!15
0!5
0!18
0!17
#22
0!1
0!2
0!3
0!4
0!5
0!6
0!7
0!8
0!9
0!10
0!11
0!12
0!13
0!14
0!15
0!16
0!17
0!18
#30
0!2
0!14
0!4
0!13
0!11
0!10
0!9
0!12
0!6
0!16
0!7
0!8
0!1
0!3
0!15
1!5
0!18
0!17
#32
0!1
0!2
0!3
0!4
0!5
0!6
0!7
0!8
0!9
0!10
0!11
0!12
0!13
0!14
0!15
0!16
0!17
0!18
#40
1!2
1!14
0!4
0!13
0!11
0!10
0!9
1!12
0!6
0!16
0!7
0!8
1!1
0!3
0!15
0!5
0!18
1!17
#42
0!1
0!2
0!3
0!4
0!5
0!6
0!7
0!8
0!9
0!10
0!11
0!12
0!13
0!14
0!15
0!16
0!17
0!18
#50
0!2
0!14
0!4
0!13
1!11
0!10
0!9
0!12
1!6
0!16
1!7
0!8
1!1
0!3
1!15
0!5
1!18
0!17
#52
0!1
0!2
0!3
0!4
0!5
0!6
0!7
0!8
0!9
0!10
0!11
0!12
0!13
0!14
0!15
0!16
0!17
0!18
#60
0!2
0!14
0!4
0!13
0!11
0!10
0!9
1!12
0!6
1!16
0!7
1!8
1!1
1!3
0!15
0!5
0!18
1!17
#62
0!1
0!2
0!3
0!4
0!5
0!6
0!7
0!8
0!9
0!10
0!11
0!12
0!13
0!14
0!15
0!16
0!17
0!18
#70
0!2
0!14
0!4
0!13
0!11
0!10
1!9
0!12
0!6
0!16
0!7
0!8
0!1
0!3
0!15
0!5
0!18
0!17
#72
0!1
0!2
0!3
0!4
0!5
0!6
0!7
0!8
0!9
0!10
0!11
0!12
0!13
0!14
0!15
0!16
0!17
0!18
#80
1!2
0!14
0!4
0!13
0!11
0!10
0!9
0!12
0!6
0!16
0!7
0!8
0!1
0!3
0!15
0!5
0!18
0!17
#82
0!1
0!2
0!3
0!4
0!5
0!6
0!7
0!8
0!9
0!10
0!11
0!12
0!13
0!14
0!15
0!16
0!17
0!18
#90
0!2
0!14
1!4
1!13
1!11
1!10
0!9
0!12
0!6
0!16
0!7
0!8
0!1
0!3
0!15
0!5
1!18
0!17
#92
0!1
0!2
0!3
0!4
0!5
0!6
0!7
0!8
0!9
0!10
0!11
0!12
0!13
0!14
0!15
0!16
0!17
0!18
#100
0!2
0!14
0!4
0!13
0!11
0!10
0!9
0!12
0!6
0!16
0!7
0!8
1!1
0!3
0!15
1!5
0!18
0!17
#102
0!1
0!2
0!3
0!4
0!5
0!6
0!7
0!8
0!9
0!10
0!11
0!12
0!13
0!14
0!15
0!16
0!17
0!18
#110
1!2
0!14
0!4
0!13
0!11
0!10
0!9
0!12
0!6
0!16
0!7
0!8
0!1
0!3
0!15
0!5
0!18
0!17
#112
0!1
0!2
0!3
0!4
0!5
0!6
0!7
0!8
0!9
0!10
0!11
0!12
0!13
0!14
0!15
0!16
0!17
0!18
#120
1!2
0!14
0!4
0!13
0!11
0!10
0!9
0!12
0!6
0!16
0!7
0!8
0!1
0!3
0!15
0!5
0!18
0!17
#122
0!1
0!2
0!3
0!4
0!5
0!6
0!7
0!8
0!9
0!10
0!11
0!12
0!13
0!14
0!15
0!16
0!17
0!18
#130
0!2
1!14
0!4
0!13
0!11
0!10
0!9
1!12
0!6
0!16
0!7
0!8
1!1
0!3
0!15
0!5
0!18
1!17
#132
0!1
0!2
0!3
0!4
0!5
0!6
0!7
0!8
0!9
0!10
0!11
0!12
0!13
0!14
0!15
0!16
0!17
0!18
#140
1!2
0!14
0!4
0!13
1!11
0!10
0!9
0!12
0!6
0!16
0!7
0!8
0!1
0!3
1!15
0!5
1!18
0!17
#142
0!1
0!2
0!3
0!4
0!5
0!6
0!7
0!8
0!9
0!10
0!11
0!12
0!13
0!14
0!15
0!16
0!17
0!18
#150
0!2
0!14
0!4
0!13
0!11
0!10
0!9
0!12
1!6
0!16
1!7
0!8
1!1
0!3
0!15
0!5
0!18
0!17
#152
0!1
0!2
0!3
0!4
0!5
0!6
0!7
0!8
0!9
0!10
0!11
0!12
0!13
0!14
0!15
0!16
0!17
0!18
#160
0!2
0!14
0!4
0!13
0!11
0!10
0!9
1!12
0!6
1!16
0!7
0!8
1!1
1!3
0!15
0!5
0!18
1!17
#162
0!1
0!2
0!3
0!4
0!5
0!6
0!7
0!8
0!9
0!10
0!11
0!12
0!13
0!14
0!15
0!16
0!17
0!18
#170
0!2
0!14
0!4
1!13
1!11
0!10
1!9
0!12
0!6
0!16
0!7
1!8
1!1
0!3
0!15
0!5
1!18
0!17
#172
0!1
0!2
0!3
0!4
0!5
0!6
0!7
0!8
0!9
0!10
0!11
0!12
0!13
0!14
0!15
0!16
0!17
0!18
#180
1!2
0!14
1!4
0!13
0!11
1!10
0!9
0!12
0!6
0!16
0!7
0!8
1!1
0!3
0!15
0!5
0!18
0!17
#182
0!1
0!2
0!3
0!4
0!5
0!6
0!7
0!8
0!9
0!10
0!11
0!12
0!13
0!14
0!15
0!16
0!17
0!18
#190
1!2
1!14
0!4
0!13
0!11
0!10
0!9
1!12
0!6
0!16
0!7
0!8
0!1
0!3
0!15
1!5
0!18
1!17
#192
0!1
0!2
0!3
0!4
0!5
0!6
0!7
0!8
0!9
0!10
0!11
0!12
0!13
0!14
0!15
0!16
0!17
0!18
#200
0!2
0!14
0!4
0!13
0!11
0!10
0!9
0!12
0!6
0!16
0!7
0!8
1!1
0!3
0!15
0!5
0!18
0!17
#202
0!1
0!2
0!3
0!4
0!5
0!6
0!7
0!8
0!9
0!10
0!11
0!12
0!13
0!14
0!15
0!16
0!17
0!18
#210
0!2
0!14
0!4
0!13
1!11
0!10
0!9
0!12
1!6
0!16
0!7
0!8
0!1
0!3
1!15
0!5
1!18
0!17
#212
0!1
0!2
0!3
0!4
0!5
0!6
0!7
0!8
0!9
0!10
0!11
0!12
0!13
0!14
0!15
0!16
0!17
0!18
#220
1!2
0!14
0!4
0!13
0!11
0!10
0!9
0!12
0!6
0!16
0!7
0!8
1!1
1!3
0!15
0!5
0!18
0!17
#222
0!1
0!2
0!3
0!4
0!5
0!6
0!7
0!8
0!9
0!10
0!11
0!12
0!13
0!14
0!15
0!16
0!17
0!18
#230
0!2
0!14
0!4
0!13
0!11
0!10
0!9
1!12
0!6
1!16
1!7
0!8
1!1
0!3
0!15
0!5
0!18
1!17
#232
0!1
0!2
0!3
0!4
0!5
0!6
0!7
0!8
0!9
0!10
0!11
0!12
0!13
0!14
0!15
0!16
0!17
0!18
#240
1!2
0!14
0!4
1!13
1!11
0!10
0!9
0!12
0!6
0!16
0!7
1!8
0!1
0!3
0!15
0!5
1!18
0!17
#242
0!1
0!2
0!3
0!4
0!5
0!6
0!7
0!8
0!9
0!10
0!11
0!12
0!13
0!14
0!15
0!16
0!17
0!18
#250
0!2
0!14
0!4
0!13
0!11
1!10
1!9
0!12
0!6
0!16
0!7
0!8
0!1
0!3
0!15
0!5
0!18
0!17
#252
0!1
0!2
0!3
0!4
0!5
0!6
0!7
0!8
0!9
0!10
0!11
0!12
0!13
0!14
0!15
0!16
0!17
0!18
#260
1!2
0!14
1!4
0!13
0!11
0!10
0!9
0!12
0!6
0!16
0!7
0!8
1!1
0!3
0!15
0!5
0!18
0!17
#262
0!1
0!2
0!3
0!4
0!5
0!6
0!7
0!8
0!9
0!10
0!11
0!12
0!13
0!14
0!15
0!16
0!17
0!18
#270
1!2
0!14
0!4
0!13
0!11
0!10
0!9
0!12
0!6
0!16
0!7
0!8
1!1
0!3
0!15
0!5
0!18
0!17
#272
0!1
0!2
0!3
0!4
0!5
0!6
0!7
0!8
0!9
0!10
0!11
0!12
0!13
0!14
0!15
0!16
0!17
0!18
#280
1!2
1!14
0!4
0!13
0!11
0!10
0!9
1!12
0!6
0!16
0!7
0!8
1!1
0!3
0!15
1!5
0!18
1!17
#282
0!1
0!2
0!3
0!4
0!5
0!6
0!7
0!8
0!9
0!10
0!11
0!12
0!13
0!14
0!15
0!16
0!17
0!18
#290
1!2
0!14
0!4
0!13
0!11
0!10
0!9
0!12
0!6
0!16
0!7
0!8
0!1
0!3
0!15
0!5
0!18
0!17
#292
0!1
0!2
0!3
0!4
0!5
0!6
0!7
0!8
0!9
0!10
0!11
0!12
0!13
0!14
0!15
0!16
0!17
0!18
#300
1!2
0!14
0!4
0!13
1!11
0!10
0!9
0!12
0!6
0!16
0!7
0!8
1!1
0!3
1!15
0!5
1!18
0!17
#302
0!1
0!2
0!3
0!4
0!5
0!6
0!7
0!8
0!9
0!10
0!11
0!12
0!13
0!14
0!15
0!16
0!17
0!18
#310
1!2
0!14
0!4
0!13
0!11
0!10
0!9
0!12
0!6
0!16
0!7
0!8
1!1
0!3
0!15
0!5
0!18
0!17
#312
0!1
0!2
0!3
0!4
0!5
0!6
0!7
0!8
0!9
0!10
0!11
0!12
0!13
0!14
0!15
0!16
0!17
0!18
#320
0!2
0!14
0!4
0!13
0!11
0!10
0!9
1!12
1!6
1!16
1!7
0!8
0!1
0!3
0!15
0!5
0!18
1!17
#322
0!1
0!2
0!3
0!4
0!5
0!6
0!7
0!8
0!9
0!10
0!11
0!12
0!13
0!14
0!15
0!16
0!17
0!18
#330
1!2
0!14
0!4
0!13
0!11
0!10
0!9
0!12
0!6
0!16
0!7
0!8
0!1
1!3
0!15
0!5
0!18
0!17
#332
0!1
0!2
0!3
0!4
0!5
0!6
0!7
0!8
0!9
0!10
0!11
0!12
0!13
0!14
0!15
0!16
0!17
0!18
#340
1!2
0!14
0!4
1!13
1!11
0!10
0!9
0!12
0!6
0!16
0!7
0!8
1!1
0!3
0!15
0!5
1!18
0!17
#342
0!1
0!2
0!3
0!4
0!5
0!6
0!7
0!8
0!9
0!10
0!11
0!12
0!13
0!14
0!15
0!16
0!17
0!18
#350
1!2
0!14
0!4
0!13
0!11
1!10
1!9
0!12
0!6
0!16
0!7
1!8
0!1
0!3
0!15
0!5
0!18
0!17
#352
0!1
0!2
0!3
0!4
0!5
0!6
0!7
0!8
0!9
0!10
0!11
0!12
0!13
0!14
0!15
0!16
0!17
0!18
#360
1!2
0!14
1!4
0!13
0!11
0!10
0!9
0!12
0!6
0!16
0!7
0!8
1!1
0!3
0!15
0!5
0!18
0!17
#362
0!1
0!2
0!3
0!4
0!5
0!6
0!7
0!8
0!9
0!10
0!11
0!12
0!13
0!14
0!15
0!16
0!17
0!18
#370
1!2
0!14
0!4
0!13
0!11
0!10
0!9
0!12
0!6
0!16
0!7
0!8
1!1
0!3
0!15
0!5
0!18
0!17
#372
0!1
0!2
0!3
0!4
0!5
0!6
0!7
0!8
0!9
0!10
0!11
0!12
0!13
0!14
0!15
0!16
0!17
0!18
#380
1!2
1!14
0!4
0!13
0!11
0!10
0!9
1!12
0!6
0!16
0!7
0!8
1!1
0!3
0!15
1!5
0!18
1!17
#382
0!1
0!2
0!3
0!4
0!5
0!6
0!7
0!8
0!9
0!10
0!11
0!12
0!13
0!14
0!15
0!16
0!17
0!18
#390
0!2
0!14
0!4
0!13
0!11
0!10
0!9
0!12
0!6
0!16
0!7
0!8
1!1
0!3
0!15
0!5
0!18
0!17
#392
0!1
0!2
0!3
0!4
0!5
0!6
0!7
0!8
0!9
0!10
0!11
0!12
0!13
0!14
0!15
0!16
0!17
0!18
#400
1!2
0!14
0!4
0!13
1!11
0!10
0!9
0!12
1!6
0!16
1!7
0!8
0!1
0!3
1!15
0!5
1!18
0!17
#402
0!1
0!2
0!3
0!4
0!5
0!6
0!7
0!8
0!9
0!10
0!11
0!12
0!13
0!14
0!15
0!16
0!17
0!18
#410
1!2
0!14
0!4
0!13
0!11
0!10
0!9
1!12
0!6
1!16
0!7
1!8
1!1
1!3
0!15
0!5
0!18
1!17
#412
0!1
0!2
0!3
0!4
0!5
0!6
0!7
0!8
0!9
0!10
0!11
0!12
0!13
0!14
0!15
0!16
0!17
0!18
#420
0!2
0!14
0!4
0!13
0!11
1!10
1!9
0!12
0!6
0!16
0!7
0!8
1!1
0!3
0!15
0!5
0!18
0!17
#422
0!1
0!2
0!3
0!4
0!5
0!6
0!7
0!8
0!9
0!10
0!11
0!12
0!13
0!14
0!15
0!16
0!17
0!18
#430
0!2
0!14
0!4
0!13
0!11
0!10
0!9
0!12
0!6
0!16
0!7
0!8
1!1
0!3
0!15
0!5
0!18
0!17
#432
0!1
0!2
0!3
0!4
0!5
0!6
0!7
0!8
0!9
0!10
0!11
0!12
0!13
0!14
0!15
0!16
0!17
0!18
#440
1!2
0!14
1!4
1!13
1!11
0!10
0!9
0!12
0!6
0!16
0!7
0!8
1!1
0!3
0!15
0!5
1!18
0!17
#442
0!1
0!2
0!3
0!4
0!5
0!6
0!7
0!8
0!9
0!10
0!11
0!12
0!13
0!14
0!15
0!16
0!17
0!18
#450
0!2
1!14
0!4
0!13
0!11
0!10
0!9
1!12
0!6
0!16
0!7
0!8
0!1
0!3
0!15
1!5
0!18
1!17
#452
0!1
0!2
0!3
0!4
0!5
0!6
0!7
0!8
0!9
0!10
0!11
0!12
0!13
0!14
0!15
0!16
0!17
0!18
#460
1!2
0!14
0!4
0!13
0!11
0!10
0!9
0!12
0!6
0!16
0!7
0!8
1!1
0!3
0!15
0!5
0!18
0!17
#462
0!1
0!2
0!3
0!4
0!5
0!6
0!7
0!8
0!9
0!10
0!11
0!12
0!13
0!14
0!15
0!16
0!17
0!18
#470
1!2
0!14
0!4
0!13
1!11
0!10
0!9
0!12
1!6
0!16
0!7
0!8
1!1
0!3
1!15
0!5
1!18
0!17
#472
0!1
0!2
0!3
0!4
0!5
0!6
0!7
0!8
0!9
0!10
0!11
0!12
0!13
0!14
0!15
0!16
0!17
0!18
#480
1!2
0!14
0!4
0!13
0!11
0!10
0!9
0!12
0!6
0!16
0!7
0!8
0!1
1!3
0!15
0!5
0!18
0!17
#482
0!1
0!2
0!3
0!4
0!5
0!6
0!7
0!8
0!9
0!10
0!11
0!12
0!13
0!14
0!15
0!16
0!17
0!18
#490
1!2
0!14
0!4
0!13
0!11
0!10
0!9
0!12
0!6
0!16
0!7
0!8
0!1
0!3
0!15
0!5
0!18
0!17
#492
0!1
0!2
0!3
0!4
0!5
0!6
0!7
0!8
0!9
0!10
0!11
0!12
0!13
0!14
0!15
0!16
0!17
0!18
#500
0!2
0!14
0!4
0!13
0!11
0!10
0!9
1!12
0!6
1!16
1!7
0!8
0!1
0!3
0!15
0!5
0!18
1!17
#502
0!1
0!2
0!3
0!4
0!5
0!6
0!7
0!8
0!9
0!10
0!11
0!12
0!13
0!14
0!15
0!16
0!17
0!18
#510
1!2
0!14
1!4
1!13
1!11
0!10
0!9
0!12
0!6
0!16
0!7
0!8
1!1
0!3
0!15
0!5
1!18
0!17
#512
0!1
0!2
0!3
0!4
0!5
0!6
0!7
0!8
0!9
0!10
0!11
0!12
0!13
0!14
0!15
0!16
0!17
0!18
#520
1!2
1!14
0!4
0!13
0!11
0!10
0!9
1!12
0!6
0!16
0!7
0!8
1!1
0!3
0!15
1!5
0!18
1!17
#522
0!1
0!2
0!3
0!4
0!5
0!6
0!7
0!8
0!9
0!10
0!11
0!12
0!13
0!14
0!15
0!16
0!17
0!18
#530
0!2
0!14
0!4
0!13
0!11
0!10
0!9
0!12
0!6
0!16
0!7
1!8
1!1
0!3
0!15
0!5
0!18
0!17
#532
0!1
0!2
0!3
0!4
0!5
0!6
0!7
0!8
0!9
0!10
0!11
0!12
0!13
0!14
0!15
0!16
0!17
0!18
#540
0!2
0!14
0!4
0!13
1!11
0!10
1!9
0!12
0!6
0!16
0!7
0!8
0!1
0!3
1!15
0!5
1!18
0!17
#542
0!1
0!2
0!3
0!4
0!5
0!6
0!7
0!8
0!9
0!10
0!11
0!12
0!13
0!14
0!15
0!16
0!17
0!18
#550
1!2
0!14
0!4
0!13
0!11
0!10
0!9
1!12
1!6
1!16
1!7
0!8
0!1
0!3
0!15
0!5
0!18
1!17
#552
0!1
0!2
0!3
0!4
0!5
0!6
0!7
0!8
0!9
0!10
0!11
0!12
0!13
0!14
0!15
0!16
0!17
0!18
#560
0!2
0!14
0!4
0!13
0!11
1!10
0!9
0!12
0!6
0!16
0!7
0!8
1!1
1!3
0!15
0!5
0!18
0!17
#562
0!1
0!2
0!3
0!4
0!5
0!6
0!7
0!8
0!9
0!10
0!11
0!12
0!13
0!14
0!15
0!16
0!17
0!18
#570
1!2
0!14
0!4
0!13
0!11
0!10
0!9
0!12
0!6
0!16
0!7
0!8
1!1
0!3
0!15
0!5
0!18
0!17
#572
0!1
0!2
0!3
0!4
0!5
0!6
0!7
0!8
0!9
0!10
0!11
0!12
0!13
0!14
0!15
0!16
0!17
0!18
#580
0!2
0!14
0!4
1!13
1!11
1!10
1!9
0!12
0!6
0!16
0!7
1!8
1!1
0!3
0!15
0!5
1!18
0!17
#582
0!1
0!2
0!3
0!4
0!5
0!6
0!7
0!8
0!9
0!10
0!11
0!12
0!13
0!14
0!15
0!16
0!17
0!18
#590
1!2
0!14
0!4
0!13
0!11
0!10
0!9
0!12
0!6
0!16
0!7
0!8
0!1
0!3
0!15
0!5
0!18
0!17
#592
0!1
0!2
0!3
0!4
0!5
0!6
0!7
0!8
0!9
0!10
0!11
0!12
0!13
0!14
0!15
0!16
0!17
0!18
#600
0!2
0!14
1!4
0!13
0!11
0!10
0!9
0!12
0!6
0!16
0!7
0!8
1!1
0!3
0!15
0!5
0!18
0!17
#602
0!1
0!2
0!3
0!4
0!5
0!6
0!7
0!8
0!9
0!10
0!11
0!12
0!13
0!14
0!15
0!16
0!17
0!18
#610
1!2
1!14
0!4
0!13
0!11
0!10
0!9
1!12
0!6
0!16
0!7
0!8
1!1
0!3
0!15
1!5
0!18
1!17
#612
0!1
0!2
0!3
0!4
0!5
0!6
0!7
0!8
0!9
0!10
0!11
0!12
0!13
0!14
0!15
0!16
0!17
0!18
#620
1!2
0!14
0!4
0!13
1!11
0!10
0!9
0!12
0!6
0!16
0!7
0!8
1!1
0!3
1!15
0!5
1!18
0!17
#622
0!1
0!2
0!3
0!4
0!5
0!6
0!7
0!8
0!9
0!10
0!11
0!12
0!13
0!14
0!15
0!16
0!17
0!18
#630
0!2
0!14
0!4
0!13
0!11
0!10
0!9
1!12
1!6
1!16
1!7
0!8
0!1
0!3
0!15
0!5
0!18
1!17
#632
0!1
0!2
0!3
0!4
0!5
0!6
0!7
0!8
0!9
0!10
0!11
0!12
0!13
0!14
0!15
0!16
0!17
0!18
#640
0!2
0!14
0!4
0!13
0!11
0!10
0!9
0!12
0!6
0!16
0!7
0!8
1!1
0!3
0!15
0!5
0!18
0!17
#642
0!1
0!2
0!3
0!4
0!5
0!6
0!7
0!8
0!9
0!10
0!11
0!12
0!13
0!14
0!15
0!16
0!17
0!18
#650
0!2
0!14
0!4
0!13
0!11
0!10
0!9
0!12
0!6
0!16
0!7
0!8
1!1
1!3
0!15
0!5
0!18
0!17
#652
0!1
0!2
0!3
0!4
0!5
0!6
0!7
0!8
0!9
0!10
0!11
0!12
0!13
0!14
0!15
0!16
0!17
0!18
#660
1!2
0!14
1!4
1!13
1!11
0!10
0!9
0!12
0!6
0!16
0!7
1!8
1!1
0!3
0!15
0!5
1!18
0!17
#662
0!1
0!2
0!3
0!4
0!5
0!6
0!7
0!8
0!9
0!10
0!11
0!12
0!13
0!14
0!15
0!16
0!17
0!18
#670
0!2
1!14
0!4
0!13
0!11
0!10
1!9
1!12
0!6
0!16
0!7
0!8
0!1
0!3
0!15
1!5
0!18
1!17
#672
0!1
0!2
0!3
0!4
0!5
0!6
0!7
0!8
0!9
0!10
0!11
0!12
0!13
0!14
0!15
0!16
0!17
0!18
#680
0!2
0!14
0!4
0!13
1!11
0!10
0!9
0!12
0!6
0!16
0!7
0!8
1!1
0!3
1!15
0!5
1!18
0!17
#682
0!1
0!2
0!3
0!4
0!5
0!6
0!7
0!8
0!9
0!10
0!11
0!12
0!13
0!14
0!15
0!16
0!17
0!18
#690
1!2
0!14
0!4
0!13
0!11
0!10
0!9
0!12
1!6
0!16
0!7
0!8
1!1
0!3
0!15
0!5
0!18
0!17
#692
0!1
0!2
0!3
0!4
0!5
0!6
0!7
0!8
0!9
0!10
0!11
0!12
0!13
0!14
0!15
0!16
0!17
0!18
#700
1!2
0!14
0!4
0!13
0!11
1!10
0!9
0!12
0!6
0!16
0!7
0!8
0!1
1!3
0!15
0!5
0!18
0!17
#702
0!1
0!2
0!3
0!4
0!5
0!6
0!7
0!8
0!9
0!10
0!11
0!12
0!13
0!14
0!15
0!16
0!17
0!18
#710
1!2
0!14
0!4
0!13
0!11
0!10
0!9
0!12
0!6
0!16
1!7
0!8
1!1
0!3
0!15
0!5
0!18
0!17
#712
0!1
0!2
0!3
0!4
0!5
0!6
0!7
0!8
0!9
0!10
0!11
0!12
0!13
0!14
0!15
0!16
0!17
0!18
#720
1!2
0!14
0!4
0!13
0!11
0!10
0!9
1!12
0!6
1!16
0!7
0!8
0!1
0!3
0!15
0!5
0!18
1!17
#722
0!1
0!2
0!3
0!4
0!5
0!6
0!7
0!8
0!9
0!10
0!11
0!12
0!13
0!14
0!15
0!16
0!17
0!18
#730
0!2
0!14
0!4
0!13
0!11
1!10
1!9
0!12
0!6
0!16
0!7
1!8
1!1
0!3
0!15
0!5
0!18
0!17
#732
0!1
0!2
0!3
0!4
0!5
0!6
0!7
0!8
0!9
0!10
0!11
0!12
0!13
0!14
0!15
0!16
0!17
0!18
#740
0!2
0!14
0!4
1!13
1!11
0!10
0!9
0!12
0!6
0!16
0!7
0!8
1!1
0!3
0!15
0!5
1!18
0!17
#742
0!1
0!2
0!3
0!4
0!5
0!6
0!7
0!8
0!9
0!10
0!11
0!12
0!13
0!14
0!15
0!16
0!17
0!18
#750
1!2
0!14
0!4
0!13
0!11
0!10
0!9
0!12
0!6
0!16
0!7
0!8
1!1
0!3
0!15
0!5
0!18
0!17
#752
0!1
0!2
0!3
0!4
0!5
0!6
0!7
0!8
0!9
0!10
0!11
0!12
0!13
0!14
0!15
0!16
0!17
0!18
#760
1!2
0!14
1!4
0!13
0!11
0!10
0!9
0!12
0!6
0!16
0!7
0!8
1!1
0!3
0!15
0!5
0!18
0!17
#762
0!1
0!2
0!3
0!4
0!5
0!6
0!7
0!8
0!9
0!10
0!11
0!12
0!13
0!14
0!15
0!16
0!17
0!18
#770
1!2
0!14
0!4
0!13
0!11
0!10
0!9
0!12
0!6
0!16
0!7
0!8
0!1
0!3
0!15
1!5
0!18
0!17
#772
0!1
0!2
0!3
0!4
0!5
0!6
0!7
0!8
0!9
0!10
0!11
0!12
0!13
0!14
0!15
0!16
0!17
0!18
#780
0!2
1!14
0!4
0!13
0!11
0!10
0!9
1!12
0!6
0!16
0!7
0!8
0!1
0!3
0!15
0!5
0!18
1!17
#782
0!1
0!2
0!3
0!4
0!5
0!6
0!7
0!8
0!9
0!10
0!11
0!12
0!13
0!14
0!15
0!16
0!17
0!18
#790
1!2
0!14
0!4
0!13
0!11
0!10
0!9
0!12
0!6
0!16
0!7
0!8
1!1
0!3
0!15
0!5
0!18
0!17
#792
0!1
0!2
0!3
0!4
0!5
0!6
0!7
0!8
0!9
0!10
0!11
0!12
0!13
0!14
0!15
0!16
0!17
0!18
#800
1!2
0!14
0!4
0!13
1!11
0!10
0!9
0!12
1!6
0!16
1!7
0!8
1!1
0!3
1!15
0!5
1!18
0!17
#802
0!1
0!2
0!3
0!4
0!5
0!6
0!7
0!8
0!9
0!10
0!11
0!12
0!13
0!14
0!15
0!16
0!17
0!18
#810
0!2
0!14
0!4
0!13
0!11
1!10
1!9
1!12
0!6
1!16
0!7
1!8
0!1
0!3
0!15
0!5
0!18
1!17
#812
0!1
0!2
0!3
0!4
0!5
0!6
0!7
0!8
0!9
0!10
0!11
0!12
0!13
0!14
0!15
0!16
0!17
0!18
#820
1!2
0!14
0!4
1!13
1!11
0!10
0!9
0!12
0!6
0!16
0!7
0!8
1!1
1!3
0!15
0!5
1!18
0!17
#822
0!1
0!2
0!3
0!4
0!5
0!6
0!7
0!8
0!9
0!10
0!11
0!12
0!13
0!14
0!15
0!16
0!17
0!18
#830
1!2
0!14
0!4
0!13
0!11
0!10
0!9
0!12
0!6
0!16
0!7
0!8
0!1
0!3
0!15
0!5
0!18
0!17
#832
0!1
0!2
0!3
0!4
0!5
0!6
0!7
0!8
0!9
0!10
0!11
0!12
0!13
0!14
0!15
0!16
0!17
0!18
#840
1!2
0!14
0!4
0!13
0!11
0!10
0!9
0!12
0!6
0!16
0!7
0!8
1!1
0!3
0!15
0!5
0!18
0!17
#842
0!1
0!2
0!3
0!4
0!5
0!6
0!7
0!8
0!9
0!10
0!11
0!12
0!13
0!14
0!15
0!16
0!17
0!18
#850
1!2
0!14
1!4
0!13
0!11
0!10
0!9
0!12
0!6
0!16
0!7
0!8
1!1
0!3
0!15
0!5
0!18
0!17
#852
0!1
0!2
0!3
0!4
0!5
0!6
0!7
0!8
0!9
0!10
0!11
0!12
0!13
0!14
0!15
0!16
0!17
0!18
#860
1!2
0!14
0!4
0!13
0!11
0!10
0!9
0!12
0!6
0!16
0!7
0!8
1!1
0!3
0!15
0!5
0!18
0!17
#862
0!1
0!2
0!3
0!4
0!5
0!6
0!7
0!8
0!9
0!10
0!11
0!12
0!13
0!14
0!15
0!16
0!17
0!18
#870
1!2
0!14
0!4
0!13
0!11
0!10
0!9
0!12
0!6
0!16
0!7
0!8
0!1
0!3
0!15
0!5
0!18
0!17
#872
0!1
0!2
0!3
0!4
0!5
0!6
0!7
0!8
0!9
0!10
0!11
0!12
0!13
0!14
0!15
0!16
0!17
0!18
#880
1!2
0!14
0!4
0!13
0!11
0!10
0!9
0!12
0!6
0!16
0!7
0!8
0!1
0!3
0!15
1!5
0!18
0!17
#882
0!1
0!2
0!3
0!4
0!5
0!6
0!7
0!8
0!9
0!10
0!11
0!12
0!13
0!14
0!15
0!16
0!17
0!18
#890
1!2
1!14
0!4
0!13
0!11
0!10
0!9
1!12
0!6
0!16
0!7
0!8
0!1
0!3
0!15
0!5
0!18
1!17
#892
0!1
0!2
0!3
0!4
0!5
0!6
0!7
0!8
0!9
0!10
0!11
0!12
0!13
0!14
0!15
0!16
0!17
0!18
#900
1!2
0!14
0!4
0!13
1!11
0!10
0!9
0!12
0!6
0!16
0!7
0!8
1!1
0!3
1!15
0!5
1!18
0!17
#902
0!1
0!2
0!3
0!4
0!5
0!6
0!7
0!8
0!9
0!10
0!11
0!12
0!13
0!14
0!15
0!16
0!17
0!18
#910
0!2
0!14
0!4
0!13
0!11
0!10
0!9
1!12
1!6
1!16
1!7
0!8
0!1
0!3
0!15
0!5
0!18
1!17
#912
0!1
0!2
0!3
0!4
0!5
0!6
0!7
0!8
0!9
0!10
0!11
0!12
0!13
0!14
0!15
0!16
0!17
0!18
#920
0!2
0!14
0!4
0!13
0!11
0!10
1!9
0!12
0!6
0!16
0!7
1!8
1!1
1!3
0!15
0!5
0!18
0!17
#922
0!1
0!2
0!3
0!4
0!5
0!6
0!7
0!8
0!9
0!10
0!11
0!12
0!13
0!14
0!15
0!16
0!17
0!18
#930
0!2
0!14
0!4
0!13
0!11
0!10
0!9
0!12
0!6
0!16
0!7
0!8
1!1
0!3
0!15
0!5
0!18
0!17
#932
0!1
0!2
0!3
0!4
0!5
0!6
0!7
0!8
0!9
0!10
0!11
0!12
0!13
0!14
0!15
0!16
0!17
0!18
#940
1!2
0!14
0!4
0!13
0!11
1!10
0!9
0!12
0!6
0!16
0!7
0!8
0!1
0!3
0!15
0!5
0!18
0!17
#942
0!1
0!2
0!3
0!4
0!5
0!6
0!7
0!8
0!9
0!10
0!11
0!12
0!13
0!14
0!15
0!16
0!17
0!18
#950
1!2
0!14
0!4
0!13
0!11
0!10
0!9
0!12
0!6
0!16
0!7
0!8
0!1
0!3
0!15
0!5
0!18
0!17
#952
0!1
0!2
0!3
0!4
0!5
0!6
0!7
0!8
0!9
0!10
0!11
0!12
0!13
0!14
0!15
0!16
0!17
0!18
#960
1!2
0!14
1!4
1!13
1!11
0!10
0!9
0!12
0!6
0!16
0!7
0!8
1!1
0!3
0!15
0!5
1!18
0!17
#962
0!1
0!2
0!3
0!4
0!5
0!6
0!7
0!8
0!9
0!10
0!11
0!12
0!13
0!14
0!15
0!16
0!17
0!18
#970
0!2
1!14
0!4
0!13
0!11
0!10
0!9
1!12
0!6
0!16
0!7
0!8
0!1
0!3
0!15
1!5
0!18
1!17
#972
0!1
0!2
0!3
0!4
0!5
0!6
0!7
0!8
0!9
0!10
0!11
0!12
0!13
0!14
0!15
0!16
0!17
0!18
#980
1!2
0!14
0!4
0!13
1!11
0!10
0!9
0!12
0!6
0!16
0!7
0!8
1!1
0!3
1!15
0!5
1!18
0!17
#982
0!1
0!2
0!3
0!4
0!5
0!6
0!7
0!8
0!9
0!10
0!11
0!12
0!13
0!14
0!15
0!16
0!17
0!18
#990
0!2
0!14
0!4
0!13
0!11
0!10
0!9
0!12
1!6
0!16
1!7
0!8
1!1
0!3
0!15
0!5
0!18
0!17
#992
0!1
0!2
0!3
0!4
0!5
0!6
0!7
0!8
0!9
0!10
0!11
0!12
0!13
0!14
0!15
0!16
0!17
0!18
#1000
z!1
z!2
z!3
z!4
z!5
z!6
z!7
z!8
z!9
z!10
z!11
z!12
z!13
z!14
z!15
z!16
z!17
z!18
