$date 
Mon Nov 30 08:35:17 CET 2015
$end

$version 
VCD Generation 2.1.0
$end

$comment alias inhibitor__main__in_p "inhibitor::main::in_p" $end
$comment alias inhibitor__main__in_p_minus_first "inhibitor::main::in_p_minus_first" $end
$comment hide inhibitor__main__in_p_minus_first__DelayForDef__DelayFor_defer $end
$comment alias inhibitor__main__in_p_minus_first__DelayForDef__DelayFor_defer "inhibitor::main::in_p_minus_first::DelayForDef::DelayFor_defer" $end
$comment alias inhibitor__main__in_t "inhibitor::main::in_t" $end
$comment alias inhibitor__main__in_t_sampledOn_void "inhibitor::main::in_t_sampledOn_void" $end
$comment hide inhibitor__main__in_t_sampledOn_void__SampledOnDef__OneSampled $end
$comment alias inhibitor__main__in_t_sampledOn_void__SampledOnDef__OneSampled "inhibitor::main::in_t_sampledOn_void::SampledOnDef::OneSampled" $end
$comment hide inhibitor__main__in_t_sampledOn_void__SampledOnDef__SampledOnrootConcat $end
$comment alias inhibitor__main__in_t_sampledOn_void__SampledOnDef__SampledOnrootConcat "inhibitor::main::in_t_sampledOn_void::SampledOnDef::SampledOnrootConcat" $end
$comment alias inhibitor__main__in_t_sampledOn_void_union_unvoid "inhibitor::main::in_t_sampledOn_void_union_unvoid" $end
$comment hide inhibitor__main__in_t_sampledOn_void_union_unvoid__SampledOnDef__OneSampled $end
$comment alias inhibitor__main__in_t_sampledOn_void_union_unvoid__SampledOnDef__OneSampled "inhibitor::main::in_t_sampledOn_void_union_unvoid::SampledOnDef::OneSampled" $end
$comment hide inhibitor__main__in_t_sampledOn_void_union_unvoid__SampledOnDef__SampledOnrootConcat $end
$comment alias inhibitor__main__in_t_sampledOn_void_union_unvoid__SampledOnDef__SampledOnrootConcat "inhibitor::main::in_t_sampledOn_void_union_unvoid::SampledOnDef::SampledOnrootConcat" $end
$comment alias inhibitor__main__out_p "inhibitor::main::out_p" $end
$comment alias inhibitor__main__unvoid_expr "inhibitor::main::unvoid_expr" $end
$comment hide inhibitor__main__unvoid_expr__SampledOnDef__OneSampled $end
$comment alias inhibitor__main__unvoid_expr__SampledOnDef__OneSampled "inhibitor::main::unvoid_expr::SampledOnDef::OneSampled" $end
$comment hide inhibitor__main__unvoid_expr__SampledOnDef__SampledOnrootConcat $end
$comment alias inhibitor__main__unvoid_expr__SampledOnDef__SampledOnrootConcat "inhibitor::main::unvoid_expr::SampledOnDef::SampledOnrootConcat" $end
$comment alias inhibitor__main__unvoid_p "inhibitor::main::unvoid_p" $end
$comment alias inhibitor__main__void_expr "inhibitor::main::void_expr" $end
$comment alias inhibitor__main__void_p "inhibitor::main::void_p" $end
$comment alias inhibitor__main__void_union_unvoid "inhibitor::main::void_union_unvoid" $end
$comment scale 0.1  $end
$comment relation   "inhibitor2015_1130_083516.ccslrelationmodel" $end
$comment xmi  inhibitor__main__void_p "inhibitor2015_1130_083516.trace#//@references.0" $end
$comment xmi  inhibitor__main__out_p "inhibitor2015_1130_083516.trace#//@references.1" $end
$comment xmi  inhibitor__main__in_p "inhibitor2015_1130_083516.trace#//@references.2" $end
$comment xmi  inhibitor__main__in_t "inhibitor2015_1130_083516.trace#//@references.3" $end
$comment xmi  inhibitor__main__unvoid_p "inhibitor2015_1130_083516.trace#//@references.4" $end
$comment xmi  inhibitor__main__unvoid_expr__SampledOnDef__OneSampled "inhibitor2015_1130_083516.trace#//@references.5" $end
$comment xmi  inhibitor__main__in_p_minus_first__DelayForDef__DelayFor_defer "inhibitor2015_1130_083516.trace#//@references.6" $end
$comment xmi  inhibitor__main__in_t_sampledOn_void_union_unvoid__SampledOnDef__SampledOnrootConcat "inhibitor2015_1130_083516.trace#//@references.7" $end
$comment xmi  inhibitor__main__unvoid_expr "inhibitor2015_1130_083516.trace#//@references.8" $end
$comment xmi  inhibitor__main__unvoid_expr__SampledOnDef__SampledOnrootConcat "inhibitor2015_1130_083516.trace#//@references.9" $end
$comment xmi  inhibitor__main__in_t_sampledOn_void__SampledOnDef__OneSampled "inhibitor2015_1130_083516.trace#//@references.10" $end
$comment xmi  inhibitor__main__in_t_sampledOn_void_union_unvoid "inhibitor2015_1130_083516.trace#//@references.11" $end
$comment xmi  inhibitor__main__in_t_sampledOn_void_union_unvoid__SampledOnDef__OneSampled "inhibitor2015_1130_083516.trace#//@references.12" $end
$comment xmi  inhibitor__main__void_union_unvoid "inhibitor2015_1130_083516.trace#//@references.13" $end
$comment xmi  inhibitor__main__in_p_minus_first "inhibitor2015_1130_083516.trace#//@references.14" $end
$comment xmi  inhibitor__main__in_t_sampledOn_void__SampledOnDef__SampledOnrootConcat "inhibitor2015_1130_083516.trace#//@references.15" $end
$comment xmi  inhibitor__main__void_expr "inhibitor2015_1130_083516.trace#//@references.16" $end
$comment xmi  inhibitor__main__in_t_sampledOn_void "inhibitor2015_1130_083516.trace#//@references.17" $end
$scope module top $end
$var event 1 !1 inhibitor__main__in_p $end
$var event 1 !2 inhibitor__main__in_p_minus_first $end
$var event 1 !3 inhibitor__main__in_p_minus_first__DelayForDef__DelayFor_defer $end
$var event 1 !4 inhibitor__main__in_t $end
$var event 1 !5 inhibitor__main__in_t_sampledOn_void $end
$var event 1 !6 inhibitor__main__in_t_sampledOn_void__SampledOnDef__OneSampled $end
$var event 1 !7 inhibitor__main__in_t_sampledOn_void__SampledOnDef__SampledOnrootConcat $end
$var event 1 !8 inhibitor__main__in_t_sampledOn_void_union_unvoid $end
$var event 1 !9 inhibitor__main__in_t_sampledOn_void_union_unvoid__SampledOnDef__OneSampled $end
$var event 1 !10 inhibitor__main__in_t_sampledOn_void_union_unvoid__SampledOnDef__SampledOnrootConcat $end
$var event 1 !11 inhibitor__main__out_p $end
$var event 1 !12 inhibitor__main__unvoid_expr $end
$var event 1 !13 inhibitor__main__unvoid_expr__SampledOnDef__OneSampled $end
$var event 1 !14 inhibitor__main__unvoid_expr__SampledOnDef__SampledOnrootConcat $end
$var event 1 !15 inhibitor__main__unvoid_p $end
$var event 1 !16 inhibitor__main__void_expr $end
$var event 1 !17 inhibitor__main__void_p $end
$var event 1 !18 inhibitor__main__void_union_unvoid $end
$upscope $end
$enddefinitions $end

#0
1!1
#10
1!4
#20
1!17
1!11
1!1
1!3
1!10
1!6
1!8
1!9
1!18
1!2
1!7
1!16
1!5
#30
1!17
1!11
1!18
1!16
#40
1!17
1!11
1!18
1!16
#50
1!17
1!11
1!1
1!15
1!13
1!3
1!12
1!14
1!18
1!2
1!16
#60
1!17
1!11
1!1
1!3
1!18
1!2
1!16
#70
1!17
1!11
1!1
1!4
1!15
1!13
1!3
1!12
1!14
1!18
1!2
1!16
#80
1!1
1!3
1!2
#90
1!1
1!3
1!2
#100
1!17
1!11
1!1
1!4
1!3
1!10
1!6
1!8
1!9
1!18
1!2
1!7
1!16
1!5
#110
1!17
1!1
1!4
1!15
1!13
1!3
1!12
1!14
1!18
1!2
1!16
#120
1!17
1!1
1!3
1!10
1!6
1!8
1!9
1!18
1!2
1!7
1!16
1!5
#130
1!17
1!11
1!1
1!4
1!15
1!13
1!3
1!12
1!14
1!18
1!2
1!16
#140
1!11
1!4
#150
1!11
#160
1!17
1!11
1!1
1!3
1!10
1!6
1!8
1!9
1!18
1!2
1!7
1!16
1!5
#170
1!17
1!11
1!18
1!16
#180
1!4
#190
1!4
#200
1!17
1!11
1!10
1!6
1!8
1!9
1!18
1!7
1!16
1!5
#210
1!17
1!11
1!4
1!18
1!16
#220
1!17
1!11
1!4
1!10
1!6
1!8
1!9
1!18
1!7
1!16
1!5
#230
1!4
#240
1!17
1!11
1!1
1!4
1!15
1!13
1!3
1!10
1!12
1!14
1!6
1!8
1!9
1!18
1!2
1!7
1!16
1!5
#250
1!1
1!3
1!2
#260
1!1
1!3
1!2
#270
1!17
1!11
1!4
1!18
1!16
#280
1!17
1!11
1!10
1!6
1!8
1!9
1!18
1!7
1!16
1!5
#290
1!1
1!15
1!13
1!3
1!12
1!14
1!18
1!2
#300
1!1
1!3
1!2
#310
1!17
1!11
1!1
1!3
1!18
1!2
1!16
#320
1!17
1!11
1!18
1!16
#330
1!17
1!11
1!1
1!15
1!13
1!3
1!12
1!14
1!18
1!2
1!16
#340
1!1
1!3
1!2
#350
1!1
1!4
1!3
1!2
#360
1!17
1!11
1!1
1!4
1!3
1!10
1!6
1!8
1!9
1!18
1!2
1!7
1!16
1!5
#370
1!1
1!4
1!15
1!13
1!3
1!12
1!14
1!18
1!2
#380
1!17
1!1
1!3
1!10
1!6
1!8
1!9
1!18
1!2
1!7
1!16
1!5
#390
1!17
1!11
1!1
1!15
1!13
1!3
1!12
1!14
1!18
1!2
1!16
#400
1!4
#410
1!11
1!4
#420
1!17
1!11
1!1
1!3
1!10
1!6
1!8
1!9
1!18
1!2
1!7
1!16
1!5
#430
1!17
1!11
1!4
1!18
1!16
#440
1!17
1!11
1!4
1!10
1!6
1!8
1!9
1!18
1!7
1!16
1!5
#450
1!1
1!15
1!13
1!3
1!12
1!14
1!18
1!2
#460
1!4
#470
1!1
1!3
1!2
#480
1!17
1!11
1!1
1!3
1!10
1!6
1!8
1!9
1!18
1!2
1!7
1!16
1!5
#490
1!17
1!11
1!4
1!18
1!16
#500
1!4
#510
1!17
1!11
1!1
1!4
1!15
1!13
1!3
1!10
1!12
1!14
1!6
1!8
1!9
1!18
1!2
1!7
1!16
1!5
#520
1!17
1!11
1!1
1!4
1!3
1!18
1!2
1!16
#530
1!17
1!11
1!4
1!10
1!6
1!8
1!9
1!18
1!7
1!16
1!5
#540
1!17
1!11
1!1
1!15
1!13
1!3
1!12
1!14
1!18
1!2
1!16
#550
1!17
1!11
1!18
1!16
#560
1!1
1!4
1!15
1!13
1!3
1!12
1!14
1!18
1!2
#570
1!1
1!3
1!2
#580
1!17
1!11
1!10
1!6
1!8
1!9
1!18
1!7
1!16
1!5
#590
1!17
1!11
1!1
1!15
1!13
1!3
1!12
1!14
1!18
1!2
1!16
#600
1!17
1!11
1!1
1!3
1!18
1!2
1!16
#610
1!17
1!11
1!18
1!16
#620
1!1
1!4
1!15
1!13
1!3
1!12
1!14
1!18
1!2
#630
1!17
1!11
1!4
1!10
1!6
1!8
1!9
1!18
1!7
1!16
1!5
#640
1!17
1!11
1!4
1!18
1!16
#650
1!17
1!11
1!1
1!15
1!13
1!3
1!10
1!12
1!14
1!6
1!8
1!9
1!18
1!2
1!7
1!16
1!5
#660
1!1
1!3
1!2
#670
1!17
1!11
1!1
1!3
1!18
1!2
1!16
#680
1!17
1!11
1!1
1!15
1!13
1!3
1!12
1!14
1!18
1!2
1!16
#690
1!4
#700
1!4
#710
1!1
1!4
1!3
1!2
#720
1!1
1!3
1!2
#730
1!17
1!11
1!1
1!4
1!3
1!10
1!6
1!8
1!9
1!18
1!2
1!7
1!16
1!5
#740
1!4
#750
1!17
1!11
1!4
1!10
1!6
1!8
1!9
1!18
1!7
1!16
1!5
#760
1!1
1!4
1!15
1!13
1!3
1!12
1!14
1!18
1!2
#770
1!1
1!4
1!3
1!2
#780
1!17
1!11
1!10
1!6
1!8
1!9
1!18
1!7
1!16
1!5
#790
1!17
1!11
1!18
1!16
#800
1!17
1!11
1!18
1!16
#810
1!17
1!11
1!1
1!15
1!13
1!3
1!12
1!14
1!18
1!2
1!16
#820
1!17
1!11
1!1
1!3
1!18
1!2
1!16
#830
1!17
1!11
1!1
1!15
1!13
1!3
1!12
1!14
1!18
1!2
1!16
#840
1!17
1!11
1!1
1!4
1!3
1!18
1!2
1!16
#850
1!17
1!11
1!4
1!10
1!6
1!8
1!9
1!18
1!7
1!16
1!5
#860
1!17
1!11
1!1
1!4
1!15
1!13
1!3
1!12
1!14
1!18
1!2
1!16
#870
1!17
1!11
1!1
1!4
1!3
1!10
1!6
1!8
1!9
1!18
1!2
1!7
1!16
1!5
#880
1!17
1!11
1!4
1!18
1!16
#890
1!4
#900
1!4
#910
1!17
1!11
1!10
1!6
1!8
1!9
1!18
1!7
1!16
1!5
#920
1!4
#930
1!17
1!11
1!1
1!15
1!13
1!3
1!10
1!12
1!14
1!6
1!8
1!9
1!18
1!2
1!7
1!16
1!5
#940
1!1
1!3
1!2
#950
1!1
1!4
1!3
1!2
#960
1!17
1!11
1!1
1!3
1!10
1!6
1!8
1!9
1!18
1!2
1!7
1!16
1!5
#970
1!17
1!11
1!4
1!18
1!16
#980
1!17
1!11
1!1
1!15
1!13
1!3
1!10
1!12
1!14
1!6
1!8
1!9
1!18
1!2
1!7
1!16
1!5
#990
1!17
1!11
1!18
1!16
#1000
z!1
z!2
z!3
z!4
z!5
z!6
z!7
z!8
z!9
z!10
z!11
z!12
z!13
z!14
z!15
z!16
z!17
z!18
