digraph {
	rankdir=LR;
	start=0;
	node [style="filled"]

	0 [fillcolor="#ffffff", size="10", shape="circle", fontcolor="black", label="0"];
	1 [fillcolor="#ffffff", size="10", shape="circle", fontcolor="black", label="1"];
	2 [fillcolor="#ffffff", size="10", shape="circle", fontcolor="black", label="2"];
	3 [fillcolor="#ffffff", size="10", shape="circle", fontcolor="black", label="3"];
	4 [fillcolor="#ffffff", size="10", shape="circle", fontcolor="black", label="4"];
	5 [fillcolor="#ffffff", size="10", shape="circle", fontcolor="black", label="5"];
	6 [fillcolor="#ffffff", size="10", shape="circle", fontcolor="black", label="6"];
	7 [fillcolor="#ffffff", size="10", shape="circle", fontcolor="black", label="7"];
	8 [fillcolor="#ffffff", size="10", shape="circle", fontcolor="black", label="8"];
	9 [fillcolor="#ffffff", size="10", shape="circle", fontcolor="black", label="9"];
	10 [fillcolor="#ffffff", size="10", shape="circle", fontcolor="black", label="10"];
	11 [fillcolor="#ffffff", size="10", shape="circle", fontcolor="black", label="11"];

	0 -> 1 [penwidth="1", color="#aaaaaa", style="solid", label="[in_t]"];
	0 -> 2 [penwidth="2", color="#aa0000", style="solid", label="[in_p]"];
	1 -> 1 [penwidth="1", color="#aaaaaa", style="solid", label="[in_t]"];
	1 -> 3 [penwidth="1", color="#aaaaaa", style="solid", label="[in_p]"];
	2 -> 4 [penwidth="2", color="#aa0000", style="solid", label="[out_p, void_p]"];
	2 -> 3 [penwidth="1", color="#aaaaaa", style="solid", label="[in_t]"];
	2 -> 5 [penwidth="2", color="#aa0000", style="solid", label="[in_p]"];
	3 -> 3 [penwidth="1", color="#aaaaaa", style="solid", label="[in_t]"];
	3 -> 6 [penwidth="1", color="#aaaaaa", style="solid", label="[in_p]"];
	4 -> 7 [penwidth="2", color="#aa0000", style="solid", label="[in_t]"];
	4 -> 8 [penwidth="2", color="#aa0000", style="solid", label="[unvoid_p, in_p]"];
	5 -> 8 [penwidth="2", color="#aa0000", style="solid", label="[out_p]"];
	5 -> 6 [penwidth="1", color="#aaaaaa", style="solid", label="[in_t]"];
	6 -> 9 [penwidth="1", color="#aaaaaa", style="solid", label="[out_p]"];
	6 -> 6 [penwidth="1", color="#aaaaaa", style="solid", label="[in_t]"];
	7 -> 7 [penwidth="2", color="#aa0000", style="solid", label="[in_t]"];
	7 -> 8 [penwidth="2", color="#aa0000", style="solid", label="[unvoid_p, in_p]"];
	8 -> 10 [penwidth="2", color="#aa0000", style="solid", label="[out_p, void_p]"];
	8 -> 9 [penwidth="1", color="#aaaaaa", style="solid", label="[in_t]"];
	8 -> 5 [penwidth="2", color="#aa0000", style="solid", label="[in_p]"];
	9 -> 9 [penwidth="1", color="#aaaaaa", style="solid", label="[in_t]"];
	9 -> 6 [penwidth="1", color="#aaaaaa", style="solid", label="[in_p]"];
	10 -> 11 [penwidth="2", color="#aa0000", style="solid", label="[in_t]"];
	10 -> 8 [penwidth="2", color="#aa0000", style="solid", label="[unvoid_p, in_p]"];
	11 -> 11 [penwidth="2", color="#aa0000", style="solid", label="[in_t]"];
	11 -> 8 [penwidth="2", color="#aa0000", style="solid", label="[unvoid_p, in_p]"];
}
